<svg width="1200" height="1200" viewBox="0 0 1200 1200" fill="none" xmlns="http://www.w3.org/2000/svg">
<g clip-path="url(#clip0)">
<path d="M1160.69 523.015C1160.69 751.678 909.142 1090.06 598.845 1090.06C288.549 1090.06 37.0293 751.678 37.0293 523.015C37.0293 294.353 288.549 108.943 598.845 108.943C909.142 108.943 1160.69 294.379 1160.69 523.015Z" fill="#90C33C"/>
<path d="M599.5 219C809.498 219 980 389.502 980 599.5C980 809.498 809.498 980 599.5 980C389.502 980 219 809.498 219 599.5C219 389.502 389.502 219 599.5 219Z" fill="#668632"/>
<path d="M820.504 493.377V817.104C820.504 827.921 811.65 836.763 800.833 836.763H393.082C382.265 836.763 373.423 827.921 373.423 817.104V493.377C373.423 491.269 375.12 489.566 377.228 489.566H816.687C818.795 489.566 820.504 491.269 820.504 493.377Z" fill="white"/>
<path d="M820.504 485.676V411.001C820.504 400.106 811.662 391.27 800.76 391.27H393.154C382.253 391.27 373.423 400.106 373.423 411.001V485.676C373.423 487.82 375.156 489.56 377.3 489.56H816.615C818.765 489.56 820.504 487.82 820.504 485.676Z" fill="#90C33C"/>
<path d="M476.284 443.586H467.14C460.056 443.586 454.276 437.794 454.276 430.715V370.505C454.276 363.433 460.056 357.641 467.14 357.641H476.284C483.363 357.641 489.149 363.433 489.149 370.505V430.715C489.149 437.794 483.363 443.586 476.284 443.586Z" fill="#2D2861"/>
<path d="M726.78 443.586H717.636C710.558 443.586 704.766 437.794 704.766 430.715V370.505C704.766 363.433 710.558 357.641 717.636 357.641H726.78C733.859 357.641 739.651 363.433 739.651 370.505V430.715C739.651 437.794 733.859 443.586 726.78 443.586Z" fill="#2D2861"/>
<path d="M597.893 715.444H531.457L566.547 678.421C576.211 667.851 582.975 658.61 586.962 650.698C590.948 642.786 592.88 634.995 592.88 627.325C592.88 613.434 588.471 602.623 579.714 594.952C570.896 587.342 558.515 583.477 542.57 583.477C532.182 583.477 522.881 585.711 514.667 590.12C506.453 594.59 500.111 600.69 495.581 608.481C491.112 616.212 488.877 624.849 488.877 634.27H519.619C519.619 626.479 521.673 620.198 525.659 615.427C529.645 610.655 535.141 608.239 542.026 608.239C548.489 608.239 553.441 610.233 556.884 614.158C560.387 618.084 562.138 623.459 562.138 630.345C562.138 635.358 560.447 640.673 557.186 646.229C553.864 651.846 548.791 658.369 541.966 665.918L491.957 719.188V740.207H597.893V715.444ZM704.192 595.133C695.374 587.403 683.476 583.477 668.497 583.477C653.398 583.477 641.5 587.403 632.682 595.254C623.924 603.045 619.515 613.554 619.515 626.721C619.515 634.21 621.388 640.854 625.132 646.652C628.817 652.45 634.011 657.1 640.594 660.603C633.105 664.107 627.246 669.059 622.837 675.461C618.428 681.803 616.254 689.292 616.254 697.868C616.254 711.518 620.965 722.329 630.387 730.362C639.809 738.334 652.552 742.32 668.618 742.32C684.684 742.32 697.367 738.334 706.728 730.362C716.03 722.45 720.741 711.578 720.741 697.868C720.741 689.292 718.506 681.863 714.157 675.522C709.748 669.18 703.829 664.167 696.28 660.603C702.863 657.1 708.057 652.45 711.802 646.652C715.546 640.854 717.419 634.21 717.419 626.721C717.419 613.434 713.01 602.864 704.192 595.133ZM684.261 711.76C680.456 715.625 675.262 717.618 668.618 717.618C661.793 717.618 656.478 715.565 652.673 711.518C648.868 707.532 646.936 702.217 646.936 695.634C646.936 688.809 648.868 683.433 652.794 679.447C656.659 675.401 661.854 673.408 668.376 673.408C674.96 673.408 680.214 675.461 684.08 679.508C688.005 683.494 689.938 688.869 689.938 695.634C689.938 702.458 688.066 707.834 684.261 711.76ZM682.026 643.088C678.886 646.833 674.416 648.705 668.618 648.705C662.76 648.705 658.29 646.833 655.089 643.088C651.949 639.283 650.318 634.331 650.318 628.17C650.318 621.95 651.949 617.118 655.089 613.554C658.29 609.991 662.76 608.239 668.497 608.239C674.295 608.239 678.765 610.051 681.966 613.736C685.167 617.359 686.737 622.191 686.737 628.17C686.737 634.331 685.167 639.283 682.026 643.088Z" fill="#2D2861"/>
</g>
<defs>
<clipPath id="clip0">
<rect width="1200" height="1200" fill="white"/>
</clipPath>
</defs>
</svg>
