<svg width="512" height="512" viewBox="0 0 512 512" fill="none" xmlns="http://www.w3.org/2000/svg">
<path d="M6 268.373L241.546 407.715L506.236 248.734L271.99 111.738L6 268.373Z" fill="#A2CC00"/>
<path d="M241.513 407.715V433.931L506.234 275.169V248.734L241.513 407.715Z" fill="#406903"/>
<path d="M241.823 407.784V434L6.30875 294.875V268.44L241.823 407.784Z" fill="#67AC02"/>
<path d="M89.2526 317.794L130.803 343.414L396.34 183.923L356.328 160.521L89.2526 317.794Z" fill="#465152"/>
<path d="M396.739 314.97L354.793 340.102L122.074 200.477L161.959 176.998L396.739 314.97Z" fill="#465152"/>
<path d="M363.394 320.051L360.406 321.841L343.833 311.898L346.673 310.225L363.394 320.051Z" fill="#DCDCDC"/>
<path d="M318.152 293.178L315.164 294.967L298.591 285.024L301.431 283.352L318.152 293.178Z" fill="#DCDCDC"/>
<path d="M278.966 268.375L275.978 270.165L259.405 260.22L262.245 258.549L278.966 268.375Z" fill="#DCDCDC"/>
<path d="M236.544 242.495L233.556 244.284L216.983 234.34L219.823 232.669L236.544 242.495Z" fill="#DCDCDC"/>
<path d="M203.372 223.589L200.384 225.378L183.811 215.435L186.652 213.763L203.372 223.589Z" fill="#DCDCDC"/>
<path d="M172.05 204.521L169.062 206.311L152.489 196.366L155.329 194.695L172.05 204.521Z" fill="#DCDCDC"/>
<path d="M123.638 320.333L126.626 322.123L143.199 312.178L140.359 310.507L123.638 320.333Z" fill="#DCDCDC"/>
<path d="M168.881 293.459L171.868 295.249L188.441 285.306L185.601 283.633L168.881 293.459Z" fill="#DCDCDC"/>
<path d="M208.065 268.657L211.052 270.446L227.625 260.503L224.785 258.831L208.065 268.657Z" fill="#DCDCDC"/>
<path d="M250.488 242.776L253.476 244.566L270.049 234.623L267.209 232.95L250.488 242.776Z" fill="#DCDCDC"/>
<path d="M283.659 223.87L286.646 225.66L303.219 215.717L300.379 214.044L283.659 223.87Z" fill="#DCDCDC"/>
<path d="M314.982 204.803L317.97 206.593L334.543 196.648L331.703 194.977L314.982 204.803Z" fill="#DCDCDC"/>
<path d="M242.688 89.1353L295.097 120.139L314.549 108.483L262.429 78L242.688 89.1353Z" fill="#F7E893"/>
<path d="M242.688 89.1353L295.097 120.139L314.549 108.483L262.429 78L242.688 89.1353Z" fill="#F7E893"/>
<path d="M262.378 80.1828L246.422 89.1843L295.057 117.956L310.814 108.512L262.378 80.1828Z" fill="#EBEBEB"/>
<path d="M295.089 120.139V181.315L314.547 169.708V108.482L295.089 120.139Z" fill="#E3D069"/>
<path d="M295.09 120.139V181.315L242.688 150.363V89.1366L295.09 120.139Z" fill="#F8EB90"/>
<path d="M290.856 158.745V173.831L246.922 148.063V132.929L290.856 158.745Z" fill="#A2CC00"/>
<path d="M290.856 139.969V155.055L246.922 129.287V114.153L290.856 139.969Z" fill="#A2CC00"/>
<path d="M290.856 121.526V136.612L246.922 110.844V95.7102L290.856 121.526Z" fill="#A2CC00"/>
<path d="M297.571 159.594V174.697L311.691 166.413V151.295L297.571 159.594Z" fill="#406903"/>
<path d="M297.571 140.818V155.918L311.691 147.637V132.519L297.571 140.818Z" fill="#406903"/>
<path d="M297.571 122.377V137.479L311.691 129.195V114.078L297.571 122.377Z" fill="#406903"/>
<path d="M344.67 184.452L398.137 216.081L439.889 190.934L386.717 159.838L344.67 184.452Z" fill="#EBEBEB"/>
<path d="M398.132 216.081V278.493L439.889 253.396V190.936L398.132 216.081Z" fill="#DCDCDC"/>
<path d="M398.132 216.081V278.493L344.67 246.913V184.452L398.132 216.081Z" fill="#CDCDCD"/>
<path d="M409.364 242.988L425.8 252.708L445.184 241.034L428.885 231.561L409.364 242.988Z" fill="#EBEBEB"/>
<path d="M425.796 252.708V281.685L445.182 270.032V241.034L425.796 252.708Z" fill="#DCDCDC"/>
<path d="M425.796 252.708V281.686L409.363 271.989V242.988L425.796 252.708Z" fill="#CDCDCD"/>
<path d="M381.072 214.61L372.416 209.489V228.279L381.072 233.401V214.61Z" fill="#A2CC00"/>
<path d="M360.801 221.406L369.455 226.528V207.736L360.801 202.616V221.406Z" fill="#A2CC00"/>
<path d="M357.839 200.865L348.882 195.567V214.356L357.839 219.653V200.865Z" fill="#A2CC00"/>
<path d="M384.034 216.363V235.154L393.917 241.001V222.211L384.034 216.363Z" fill="#A2CC00"/>
<path d="M360.801 247.651L369.455 252.773V233.982L360.801 228.861V247.651Z" fill="#A2CC00"/>
<path d="M381.072 240.855L372.416 235.736V254.525L381.072 259.645V240.855Z" fill="#A2CC00"/>
<path d="M384.034 242.608V261.398L393.917 267.246V248.456L384.034 242.608Z" fill="#A2CC00"/>
<path d="M357.839 227.108L348.882 221.811V240.601L357.839 245.9V227.108Z" fill="#A2CC00"/>
<path d="M61.2753 177.578L79.1115 188.128C84.0594 191.057 90.215 191.034 95.1415 188.072L151.283 154.313C155.427 151.821 155.39 145.8 151.216 143.358L135.081 133.922C129.213 130.491 121.945 130.519 116.103 133.994L61.2616 166.624C57.1056 169.097 57.1148 175.115 61.2753 177.578Z" fill="#406903"/>
<path d="M61.2753 180.436L79.1115 190.988C84.0594 193.916 90.215 193.893 95.1415 190.931L151.283 157.173C155.427 154.68 155.39 148.658 151.216 146.217L135.081 136.781C129.213 133.35 121.945 133.377 116.103 136.853L61.2616 169.482C57.1056 171.955 57.1148 177.975 61.2753 180.436Z" fill="#406903"/>
<path d="M61.2753 183.295L79.1115 193.847C84.0594 196.774 90.215 196.751 95.1415 193.789L151.283 160.031C155.427 157.538 155.39 151.517 151.216 149.075L135.081 139.639C129.213 136.208 121.945 136.236 116.103 139.711L61.2616 172.341C57.1056 174.814 57.1148 180.832 61.2753 183.295Z" fill="#406903"/>
<path d="M61.2753 186.155L79.1115 196.705C84.0594 199.634 90.215 199.611 95.1415 196.649L151.283 162.89C155.427 160.397 155.39 154.377 151.216 151.935L135.081 142.499C129.213 139.068 121.945 139.096 116.103 142.571L61.2616 175.201C57.1056 177.674 57.1148 183.692 61.2753 186.155Z" fill="#406903"/>
<path d="M61.2753 189.013L79.1115 199.565C84.0594 202.492 90.215 202.47 95.1415 199.508L151.283 165.75C155.427 163.257 155.39 157.235 151.216 154.794L135.081 145.358C129.213 141.927 121.945 141.954 116.103 145.429L61.2616 178.059C57.1056 180.532 57.1148 186.551 61.2753 189.013Z" fill="#406903"/>
<path d="M61.2753 191.872L79.1115 202.422C84.0594 205.351 90.215 205.328 95.1415 202.366L151.283 168.606C155.427 166.115 155.39 160.093 151.216 157.652L135.081 148.216C129.213 144.785 121.945 144.813 116.103 148.288L61.2616 180.918C57.1056 183.391 57.1148 189.409 61.2753 191.872Z" fill="#406903"/>
<path d="M61.2753 194.73L79.1115 205.282C84.0594 208.209 90.215 208.187 95.1415 205.225L151.283 171.466C155.427 168.973 155.39 162.952 151.216 160.511L135.081 151.075C129.213 147.644 121.945 147.671 116.103 151.146L61.2616 183.776C57.1056 186.249 57.1148 192.268 61.2753 194.73Z" fill="#406903"/>
<path d="M61.2753 197.59L79.1115 208.141C84.0594 211.069 90.215 211.047 95.1415 208.085L151.283 174.326C155.427 171.833 155.39 165.812 151.216 163.371L135.081 153.935C129.213 150.504 121.945 150.531 116.103 154.006L61.2616 186.636C57.1056 189.109 57.1148 195.128 61.2753 197.59Z" fill="#406903"/>
<path d="M61.2753 200.449L79.1115 210.999C84.0594 213.928 90.215 213.905 95.1415 210.943L151.283 177.183C155.427 174.69 155.39 168.67 151.216 166.229L135.081 156.793C129.213 153.362 121.945 153.39 116.103 156.865L61.2616 189.495C57.1056 191.968 57.1148 197.986 61.2753 200.449Z" fill="#406903"/>
<path d="M61.2753 203.307L79.1115 213.859C84.0594 216.786 90.215 216.764 95.1415 213.802L151.283 180.043C155.427 177.55 155.39 171.529 151.216 169.088L135.081 159.652C129.213 156.221 121.945 156.248 116.103 159.723L61.2616 192.353C57.1056 194.826 57.1148 200.845 61.2753 203.307Z" fill="#406903"/>
<path d="M61.2753 206.166L79.1115 216.716C84.0594 219.645 90.215 219.622 95.1415 216.66L151.283 182.9C155.427 180.409 155.39 174.387 151.216 171.946L135.081 162.51C129.213 159.079 121.945 159.107 116.103 162.582L61.2616 195.211C57.1056 197.685 57.1148 203.703 61.2753 206.166Z" fill="#406903"/>
<path d="M61.2753 209.024L79.1115 219.576C84.0594 222.503 90.215 222.481 95.1415 219.518L151.283 185.76C155.427 183.267 155.39 177.246 151.216 174.805L135.081 165.369C129.213 161.938 121.945 161.965 116.103 165.44L61.2616 198.07C57.1056 200.543 57.1148 206.562 61.2753 209.024Z" fill="#406903"/>
<path d="M61.2753 211.884L79.1115 222.435C84.0594 225.363 90.215 225.341 95.1415 222.378L151.283 188.619C155.427 186.127 155.39 180.106 151.216 177.665L135.081 168.229C129.213 164.798 121.945 164.825 116.103 168.3L61.2616 200.93C57.1056 203.403 57.1148 209.422 61.2753 211.884Z" fill="#406903"/>
<path d="M61.2753 214.743L79.1115 225.295C84.0594 228.222 90.215 228.199 95.1415 225.237L151.283 191.479C155.427 188.986 155.39 182.964 151.216 180.523L135.081 171.087C129.213 167.656 121.945 167.684 116.103 171.159L61.2616 203.788C57.1056 206.262 57.1148 212.282 61.2753 214.743Z" fill="#406903"/>
<path d="M61.2753 217.601L79.1115 228.153C84.0594 231.08 90.215 231.057 95.1415 228.095L151.283 194.337C155.427 191.844 155.39 185.823 151.216 183.382L135.081 173.946C129.213 170.515 121.945 170.542 116.103 174.017L61.2616 206.647C57.1056 209.12 57.1148 215.139 61.2753 217.601Z" fill="#406903"/>
<path d="M61.2753 220.461L79.1115 231.012C84.0594 233.94 90.215 233.917 95.1415 230.955L151.283 197.196C155.427 194.704 155.39 188.683 151.216 186.242L135.081 176.806C129.213 173.375 121.945 173.402 116.103 176.877L61.2616 209.507C57.1056 211.98 57.1148 217.999 61.2753 220.461Z" fill="#406903"/>
<path d="M61.2753 223.32L79.1115 233.872C84.0594 236.799 90.215 236.776 95.1415 233.814L151.283 200.056C155.427 197.563 155.39 191.541 151.216 189.1L135.081 179.664C129.213 176.233 121.945 176.261 116.103 179.736L61.2616 212.365C57.1056 214.839 57.1148 220.857 61.2753 223.32Z" fill="#406903"/>
<path d="M61.2753 226.178L79.1115 236.729C84.0594 239.657 90.215 239.634 95.1415 236.672L151.283 202.913C155.427 200.421 155.39 194.4 151.216 191.959L135.081 182.523C129.213 179.092 121.945 179.119 116.103 182.594L61.2616 215.224C57.1056 217.697 57.1148 223.716 61.2753 226.178Z" fill="#406903"/>
<path d="M61.2753 229.037L79.1115 239.589C84.0594 242.516 90.215 242.493 95.1415 239.531L151.283 205.773C155.427 203.28 155.39 197.258 151.216 194.817L135.081 185.381C129.213 181.95 121.945 181.978 116.103 185.453L61.2616 218.082C57.1056 220.556 57.1148 226.574 61.2753 229.037Z" fill="#406903"/>
<path d="M61.2753 231.895L79.1115 242.447C84.0594 245.374 90.215 245.351 95.1415 242.389L151.283 208.631C155.427 206.138 155.39 200.117 151.216 197.676L135.081 188.24C129.213 184.809 121.945 184.836 116.103 188.311L61.2616 220.941C57.1056 223.414 57.1148 229.433 61.2753 231.895Z" fill="#406903"/>
<path d="M61.2753 234.755L79.1115 245.306C84.0594 248.234 90.215 248.211 95.1415 245.249L151.283 211.49C155.427 208.997 155.39 202.977 151.216 200.536L135.081 191.1C129.213 187.669 121.945 187.696 116.103 191.171L61.2616 223.801C57.1056 226.274 57.1148 232.293 61.2753 234.755Z" fill="#406903"/>
<path d="M61.2753 237.614L79.1115 248.166C84.0594 251.093 90.215 251.07 95.1415 248.108L151.283 214.35C155.427 211.857 155.39 205.835 151.216 203.394L135.081 193.958C129.213 190.527 121.945 190.554 116.103 194.03L61.2616 226.659C57.1056 229.133 57.1148 235.151 61.2753 237.614Z" fill="#406903"/>
<path d="M61.2753 240.472L79.1115 251.023C84.0594 253.951 90.215 253.928 95.1415 250.966L151.283 217.207C155.427 214.715 155.39 208.694 151.216 206.252L135.081 196.817C129.213 193.386 121.945 193.413 116.103 196.888L61.2616 229.518C57.1056 231.991 57.1148 238.009 61.2753 240.472Z" fill="#406903"/>
<path d="M61.2753 243.33L79.1115 253.883C84.0594 256.81 90.215 256.787 95.1415 253.825L151.283 220.067C155.427 217.574 155.39 211.552 151.216 209.111L135.081 199.675C129.213 196.244 121.945 196.271 116.103 199.747L61.2616 232.376C57.1056 234.849 57.1148 240.868 61.2753 243.33Z" fill="#406903"/>
<path d="M61.2753 246.19L79.1115 256.741C84.0594 259.67 90.215 259.647 95.1415 256.685L151.283 222.925C155.427 220.434 155.39 214.412 151.216 211.971L135.081 202.535C129.213 199.104 121.945 199.131 116.103 202.607L61.2616 235.236C57.1056 237.709 57.1148 243.728 61.2753 246.19Z" fill="#406903"/>
<path d="M61.2753 249.049L79.1115 259.601C84.0594 262.528 90.215 262.505 95.1415 259.543L151.283 225.785C155.427 223.292 155.39 217.271 151.216 214.829L135.081 205.394C129.213 201.963 121.945 201.99 116.103 205.465L61.2616 238.095C57.1056 240.568 57.1148 246.588 61.2753 249.049Z" fill="#406903"/>
<path d="M61.2753 251.907L79.1115 262.46C84.0594 265.387 90.215 265.364 95.1415 262.402L151.283 228.644C155.427 226.151 155.39 220.129 151.216 217.688L135.081 208.252C129.213 204.821 121.945 204.848 116.103 208.324L61.2616 240.953C57.1056 243.426 57.1148 249.445 61.2753 251.907Z" fill="#406903"/>
<path d="M61.2753 254.767L79.1115 265.318C84.0594 268.247 90.215 268.224 95.1415 265.262L151.283 231.502C155.427 229.011 155.39 222.989 151.216 220.548L135.081 211.112C129.213 207.681 121.945 207.708 116.103 211.184L61.2616 243.813C57.1056 246.286 57.1148 252.305 61.2753 254.767Z" fill="#406903"/>
<path d="M61.2753 257.626L79.1115 268.178C84.0594 271.105 90.215 271.082 95.1415 268.12L151.283 234.362C155.427 231.869 155.39 225.848 151.216 223.406L135.081 213.971C129.213 210.539 121.945 210.567 116.103 214.042L61.2616 246.672C57.1056 249.145 57.1148 255.163 61.2753 257.626Z" fill="#406903"/>
<path d="M61.2753 260.484L79.1115 271.035C84.0594 273.964 90.215 273.941 95.1415 270.979L151.283 237.219C155.427 234.728 155.39 228.706 151.216 226.265L135.081 216.829C129.213 213.398 121.945 213.425 116.103 216.901L61.2616 249.53C57.1056 252.003 57.1148 258.022 61.2753 260.484Z" fill="#406903"/>
<path d="M61.2753 263.343L79.1115 273.895C84.0594 276.822 90.215 276.799 95.1415 273.837L151.283 240.079C155.427 237.586 155.39 231.565 151.216 229.123L135.081 219.688C129.213 216.256 121.945 216.284 116.103 219.759L61.2616 252.389C57.1056 254.862 57.1148 260.88 61.2753 263.343Z" fill="#406903"/>
<path d="M61.2753 266.201L79.1115 276.754C84.0594 279.681 90.215 279.658 95.1415 276.696L151.283 242.938C155.427 240.445 155.39 234.423 151.216 231.982L135.081 222.546C129.213 219.115 121.945 219.142 116.103 222.618L61.2616 255.247C57.1056 257.72 57.1148 263.739 61.2753 266.201Z" fill="#406903"/>
<path d="M61.2753 269.061L79.1115 279.612C84.0594 282.541 90.215 282.518 95.1415 279.556L151.283 245.796C155.427 243.303 155.39 237.283 151.216 234.842L135.081 225.406C129.213 221.975 121.945 222.002 116.103 225.478L61.2616 258.107C57.1056 260.58 57.1148 266.599 61.2753 269.061Z" fill="#406903"/>
<path d="M61.2753 271.92L79.1115 282.472C84.0594 285.399 90.215 285.376 95.1415 282.414L151.283 248.656C155.427 246.163 155.39 240.142 151.216 237.7L135.081 228.264C129.213 224.833 121.945 224.861 116.103 228.336L61.2616 260.966C57.1056 263.439 57.1148 269.457 61.2753 271.92Z" fill="#406903"/>
<path d="M61.2753 274.778L79.1115 285.329C84.0594 288.258 90.215 288.235 95.1415 285.273L151.283 251.513C155.427 249.022 155.39 243 151.216 240.559L135.081 231.123C129.213 227.692 121.945 227.719 116.103 231.195L61.2616 263.824C57.1056 266.297 57.1148 272.316 61.2753 274.778Z" fill="#406903"/>
<path d="M61.2753 277.637L79.1115 288.189C84.0594 291.116 90.215 291.093 95.1415 288.131L151.283 254.373C155.427 251.88 155.39 245.859 151.216 243.417L135.081 233.981C129.213 230.55 121.945 230.578 116.103 234.053L61.2616 266.683C57.1056 269.156 57.1148 275.174 61.2753 277.637Z" fill="#406903"/>
<path d="M61.2753 280.497L79.1115 291.047C84.0594 293.976 90.215 293.953 95.1415 290.991L151.283 257.232C155.427 254.74 155.39 248.719 151.216 246.277L135.081 236.841C129.213 233.41 121.945 233.438 116.103 236.913L61.2616 269.543C57.1056 272.016 57.1148 278.034 61.2753 280.497Z" fill="#406903"/>
<path d="M61.2753 177.578L79.1115 188.128C84.0594 191.057 90.215 191.034 95.1415 188.072L151.283 154.313C155.427 151.821 155.39 145.8 151.216 143.358L135.081 133.922C129.213 130.491 121.945 130.519 116.103 133.994L61.2616 166.624C57.1056 169.097 57.1148 175.115 61.2753 177.578Z" fill="#EBEBEB"/>
<path d="M94.3572 199.529C89.9058 202.206 84.3594 202.227 79.8958 199.588L58.1321 186.491V190.046L78.3363 202.205C81.038 203.802 84.0594 204.599 87.0808 204.599C90.1403 204.599 93.1998 203.779 95.9197 202.142L154.367 167.314V163.712L94.3572 199.529Z" fill="#A2CC00"/>
<path d="M94.3572 207.489C89.9058 210.166 84.3594 210.188 79.8958 207.548L58.1321 194.452V198.006L78.3363 210.165C81.038 211.762 84.0594 212.559 87.0808 212.559C90.1403 212.559 93.1998 211.74 95.9197 210.102L154.367 175.274V171.672L94.3572 207.489Z" fill="#A2CC00"/>
<path d="M94.3572 215.449C89.9058 218.127 84.3594 218.148 79.8958 215.509L58.1321 202.412V205.966L78.3363 218.125C81.038 219.723 84.0594 220.519 87.0808 220.519C90.1403 220.519 93.1998 219.7 95.9197 218.063L154.367 183.234V179.632L94.3572 215.449Z" fill="#A2CC00"/>
<path d="M94.3572 223.409C89.9058 226.087 84.3594 226.108 79.8958 223.469L58.1321 210.372V213.926L78.3363 226.085C81.038 227.683 84.0594 228.479 87.0808 228.479C90.1403 228.479 93.1998 227.66 95.9197 226.023L154.367 191.194V187.592L94.3572 223.409Z" fill="#A2CC00"/>
<path d="M94.3572 231.37C89.9058 234.047 84.3594 234.068 79.8958 231.429L58.1321 218.332V221.887L78.3363 234.045C81.038 235.643 84.0594 236.439 87.0808 236.439C90.1403 236.439 93.1998 235.62 95.9197 233.983L154.367 199.154V195.553L94.3572 231.37Z" fill="#A2CC00"/>
<path d="M94.3572 239.33C89.9058 242.007 84.3594 242.028 79.8958 239.389L58.1321 226.292V229.847L78.3363 242.006C81.038 243.603 84.0594 244.4 87.0808 244.4C90.1403 244.4 93.1998 243.58 95.9197 241.943L154.367 207.113V203.513L94.3572 239.33Z" fill="#A2CC00"/>
<path d="M94.3572 247.29C89.9058 249.967 84.3594 249.989 79.8958 247.349L58.1321 234.254V237.807L78.3363 249.966C81.038 251.563 84.0594 252.36 87.0808 252.36C90.1403 252.36 93.1998 251.54 95.9197 249.903L154.367 215.075V211.473L94.3572 247.29Z" fill="#A2CC00"/>
<path d="M94.3572 255.25C89.9058 257.927 84.3594 257.949 79.8958 255.31L58.1321 242.213V245.767L78.3363 257.926C81.038 259.523 84.0594 260.32 87.0808 260.32C90.1403 260.32 93.1998 259.501 95.9197 257.864L154.367 223.035V219.433L94.3572 255.25Z" fill="#A2CC00"/>
<path d="M94.3572 263.21C89.9058 265.888 84.3594 265.909 79.8958 263.27L58.1321 250.173V253.727L78.3363 265.886C81.038 267.484 84.0594 268.28 87.0808 268.28C90.1403 268.28 93.1998 267.461 95.9197 265.824L154.367 230.995V227.393L94.3572 263.21Z" fill="#A2CC00"/>
<path d="M94.3572 271.171C89.9058 273.848 84.3594 273.869 79.8958 271.23L58.1321 258.133V261.687L78.3363 273.846C81.038 275.444 84.0594 276.24 87.0808 276.24C90.1403 276.24 93.1998 275.421 95.9197 273.784L154.367 238.955V235.354L94.3572 271.171Z" fill="#A2CC00"/>
<path d="M94.3572 279.131C89.9058 281.808 84.3594 281.829 79.8958 279.19L58.1321 266.093V269.648L78.3363 281.806C81.038 283.404 84.0594 284.2 87.0808 284.2C90.1403 284.2 93.1998 283.381 95.9197 281.744L154.367 246.915V243.314L94.3572 279.131Z" fill="#A2CC00"/>
<path d="M115.472 138.199L130.479 147.079L142.202 140.019L127.275 131.289L115.472 138.199Z" fill="#EBEBEB"/>
<path d="M130.479 147.079V153.868L142.202 146.823V140.019L130.479 147.079Z" fill="#DCDCDC"/>
<path d="M130.479 147.077V153.868L115.472 145.003V138.197L130.479 147.077Z" fill="#CDCDCD"/>
<path d="M105.627 149.963L114.053 154.948L120.633 150.987L112.254 146.084L105.627 149.963Z" fill="#EBEBEB"/>
<path d="M114.051 154.949V158.761L120.633 154.806V150.985L114.051 154.949Z" fill="#DCDCDC"/>
<path d="M114.051 154.949V158.759L105.627 153.783V149.966L114.051 154.949Z" fill="#CDCDCD"/>
<path d="M211.141 178.776C211.261 180.819 211.465 182.927 212.325 184.786C213.283 186.856 215.217 188.495 217.107 189.695C220.826 192.058 225.301 193.633 229.459 195.033C240.026 198.592 254.386 202.098 264.057 194.45C264.104 194.405 264.152 194.36 264.199 194.314C265.171 193.063 265.895 191.693 266.103 190.102C266.2 189.357 266.254 188.602 266.271 187.85C266.324 185.39 266.731 182.925 266.423 180.465C266.112 177.972 265.03 175.927 263.212 174.212C259.907 171.095 255.501 169.072 251.272 167.53C249.936 167.042 248.641 166.408 247.321 165.875C244.677 164.807 241.995 163.824 239.239 163.082C233.939 161.657 228.219 161.119 222.888 162.688C218.965 163.842 213.718 166.395 211.878 170.258C210.767 172.59 210.952 175.233 211.085 177.737C211.103 178.081 211.121 178.428 211.141 178.776ZM251.33 170.969C251.369 170.933 251.411 170.89 251.454 170.844C251.411 170.89 251.369 170.933 251.33 170.969C251.278 170.982 251.23 170.997 251.186 171.014C251.23 170.997 251.278 170.982 251.33 170.969ZM230.078 186.283H230.078C230.135 186.31 230.187 186.334 230.24 186.359V186.359C230.187 186.335 230.135 186.31 230.078 186.283ZM229.498 161.741C229.341 161.777 229.183 161.822 229.026 161.866C229.183 161.822 229.341 161.777 229.498 161.741Z" fill="#406903"/>
<path d="M262.171 165.826C262.156 165.848 262.141 165.869 262.126 165.891C262.148 165.876 262.17 165.862 262.192 165.847C262.192 165.847 262.171 165.826 262.171 165.826Z" fill="#406903"/>
<path d="M190.72 278.781L245.525 311.204L307.167 273.096L252.664 241.221L190.72 278.781Z" fill="#EBEBEB"/>
<path d="M245.52 311.204V375.179L307.167 337.122V273.096L245.52 311.204Z" fill="#CFC8C4"/>
<path d="M245.52 311.204V375.179L190.72 342.81V278.783L245.52 311.204Z" fill="#FAF0ED"/>
<path d="M246.161 322.883V364.322L285.077 340.98V299.49L246.161 322.883Z" fill="#406903"/>
<path d="M246.16 322.883V364.322L205.961 340.98V299.49L246.16 322.883Z" fill="#A2CC00"/>
<path d="M211.648 237.739L246.755 258.508L286.239 234.096L251.327 213.68L211.648 237.739Z" fill="#EBEBEB"/>
<path d="M246.75 258.508V299.49L286.239 275.113V234.099L246.75 258.508Z" fill="#CFC8C4"/>
<path d="M246.75 258.51V299.491L211.648 278.754V237.741L246.75 258.51Z" fill="#FAF0ED"/>
<path d="M267.291 229.866C267.291 229.841 267.294 229.819 267.294 229.794C267.294 224 259.078 219.301 248.943 219.301C238.809 219.301 230.593 224 230.593 229.794C230.593 229.819 230.596 229.841 230.596 229.866C230.596 229.89 230.593 229.913 230.593 229.937C230.593 229.962 230.596 229.985 230.596 230.009C230.596 230.033 230.593 230.056 230.593 230.081C230.593 230.105 230.596 230.128 230.596 230.152C230.596 230.176 230.593 230.199 230.593 230.224C230.593 230.247 230.596 230.271 230.596 230.295C230.596 230.32 230.593 230.342 230.593 230.367C230.593 230.391 230.596 230.414 230.596 230.438C230.596 230.463 230.593 230.486 230.593 230.51C230.593 230.533 230.596 230.557 230.596 230.582C230.596 230.604 230.593 230.629 230.593 230.653C230.593 230.678 230.596 230.7 230.596 230.723C230.596 230.749 230.593 230.772 230.593 230.796C230.593 230.819 230.596 230.844 230.596 230.868C230.596 230.891 230.593 230.915 230.593 230.939C230.593 230.962 230.596 230.987 230.596 231.01C230.596 231.035 230.593 231.058 230.593 231.083C230.593 231.105 230.596 231.13 230.596 231.154C230.596 231.177 230.593 231.201 230.593 231.226C230.593 231.249 230.596 231.273 230.596 231.296C230.596 231.32 230.593 231.345 230.593 231.367C230.593 231.392 230.596 231.416 230.596 231.439C230.596 231.463 230.593 231.486 230.593 231.512C230.593 231.535 230.596 231.559 230.596 231.582C230.596 231.606 230.593 231.631 230.593 231.654C230.593 231.678 230.596 231.702 230.596 231.725C230.596 231.75 230.593 231.772 230.593 231.798C230.593 231.821 230.596 231.844 230.596 231.868C230.596 231.893 230.593 231.917 230.593 231.94C230.593 231.964 230.596 231.989 230.596 232.012C230.596 232.036 230.593 232.059 230.593 232.083C230.593 232.108 230.596 232.13 230.596 232.155C230.596 232.179 230.593 232.202 230.593 232.226C230.593 232.251 230.596 232.275 230.596 232.298C230.596 232.322 230.593 232.345 230.593 232.369C230.593 232.394 230.596 232.417 230.596 232.441C230.596 232.465 230.593 232.488 230.593 232.513C230.593 232.537 230.596 232.561 230.596 232.584C230.596 232.609 230.593 232.631 230.593 232.656C230.593 232.68 230.596 232.703 230.596 232.727C230.596 232.752 230.593 232.775 230.593 232.799C230.593 232.823 230.596 232.846 230.596 232.87C230.596 232.895 230.593 232.918 230.593 232.942C230.593 232.966 230.596 232.989 230.596 233.014C230.596 233.038 230.593 233.061 230.593 233.085C230.593 233.108 230.596 233.132 230.596 233.157C230.596 233.181 230.593 233.204 230.593 233.228C230.593 233.253 230.596 233.276 230.596 233.3C230.596 233.324 230.593 233.347 230.593 233.372C230.593 233.394 230.596 233.419 230.596 233.443C230.596 233.466 230.593 233.49 230.593 233.515C230.593 233.539 230.596 233.562 230.596 233.586C230.596 233.609 230.593 233.633 230.593 233.658C230.593 233.681 230.596 233.705 230.596 233.729C230.596 233.752 230.593 233.777 230.593 233.799C230.593 233.824 230.596 233.848 230.596 233.871C230.596 233.895 230.593 233.92 230.593 233.944C230.593 233.967 230.596 233.991 230.596 234.016C230.596 234.039 230.593 234.063 230.593 234.086C230.593 234.11 230.596 234.134 230.596 234.157C230.596 234.182 230.593 234.206 230.593 234.229C230.593 234.253 230.596 234.276 230.596 234.302C230.596 234.325 230.593 234.348 230.593 234.372C230.593 234.396 230.596 234.421 230.596 234.444C230.596 234.468 230.593 234.492 230.593 234.515C230.593 234.54 230.596 234.562 230.596 234.587C230.596 234.611 230.593 234.634 230.593 234.658C230.593 234.683 230.596 234.707 230.596 234.73C230.596 234.754 230.593 234.779 230.593 234.802C230.593 234.826 230.596 234.849 230.596 234.873C230.596 234.897 230.593 234.92 230.593 234.945C230.593 240.739 238.809 245.437 248.943 245.437C259.078 245.437 267.294 240.739 267.294 234.945C267.294 234.92 267.291 234.897 267.291 234.873C267.291 234.849 267.294 234.826 267.294 234.802C267.294 234.779 267.291 234.754 267.291 234.73C267.291 234.707 267.294 234.683 267.294 234.658C267.294 234.634 267.291 234.611 267.291 234.587C267.291 234.562 267.294 234.54 267.294 234.515C267.294 234.492 267.291 234.468 267.291 234.444C267.291 234.421 267.294 234.396 267.294 234.372C267.294 234.348 267.291 234.325 267.291 234.302C267.291 234.276 267.294 234.253 267.294 234.229C267.294 234.206 267.291 234.182 267.291 234.157C267.291 234.134 267.294 234.11 267.294 234.086C267.294 234.063 267.291 234.039 267.291 234.016C267.291 233.991 267.294 233.967 267.294 233.944C267.294 233.92 267.291 233.895 267.291 233.871C267.291 233.848 267.294 233.824 267.294 233.799C267.294 233.777 267.291 233.752 267.291 233.729C267.291 233.705 267.294 233.681 267.294 233.658C267.294 233.633 267.291 233.609 267.291 233.586C267.291 233.562 267.294 233.539 267.294 233.515C267.294 233.49 267.291 233.466 267.291 233.443C267.291 233.419 267.294 233.394 267.294 233.372C267.294 233.347 267.291 233.324 267.291 233.3C267.291 233.276 267.294 233.253 267.294 233.228C267.294 233.204 267.291 233.181 267.291 233.157C267.291 233.132 267.294 233.108 267.294 233.085C267.294 233.061 267.291 233.038 267.291 233.014C267.291 232.989 267.294 232.966 267.294 232.942C267.294 232.918 267.291 232.895 267.291 232.87C267.291 232.846 267.294 232.823 267.294 232.799C267.294 232.775 267.291 232.752 267.291 232.727C267.291 232.703 267.294 232.68 267.294 232.656C267.294 232.631 267.291 232.609 267.291 232.584C267.291 232.561 267.294 232.537 267.294 232.513C267.294 232.488 267.291 232.465 267.291 232.441C267.291 232.417 267.294 232.394 267.294 232.369C267.294 232.345 267.291 232.322 267.291 232.298C267.291 232.275 267.294 232.251 267.294 232.226C267.294 232.202 267.291 232.179 267.291 232.155C267.291 232.13 267.294 232.108 267.294 232.083C267.294 232.059 267.291 232.036 267.291 232.012C267.291 231.989 267.294 231.964 267.294 231.94C267.294 231.917 267.291 231.893 267.291 231.868C267.291 231.844 267.294 231.821 267.294 231.798C267.294 231.772 267.291 231.75 267.291 231.725C267.291 231.702 267.294 231.678 267.294 231.654C267.294 231.631 267.291 231.606 267.291 231.582C267.291 231.559 267.294 231.535 267.294 231.512C267.294 231.486 267.291 231.463 267.291 231.439C267.291 231.416 267.294 231.392 267.294 231.367C267.294 231.345 267.291 231.32 267.291 231.296C267.291 231.273 267.294 231.249 267.294 231.226C267.294 231.201 267.291 231.177 267.291 231.154C267.291 231.13 267.294 231.105 267.294 231.083C267.294 231.058 267.291 231.035 267.291 231.01C267.291 230.987 267.294 230.962 267.294 230.939C267.294 230.915 267.291 230.891 267.291 230.868C267.291 230.844 267.294 230.819 267.294 230.796C267.294 230.772 267.291 230.749 267.291 230.723C267.291 230.7 267.294 230.678 267.294 230.653C267.294 230.629 267.291 230.604 267.291 230.582C267.291 230.557 267.294 230.533 267.294 230.51C267.294 230.486 267.291 230.463 267.291 230.438C267.291 230.414 267.294 230.391 267.294 230.367C267.294 230.342 267.291 230.32 267.291 230.295C267.291 230.271 267.294 230.247 267.294 230.224C267.294 230.199 267.291 230.176 267.291 230.152C267.291 230.128 267.294 230.105 267.294 230.081C267.294 230.056 267.291 230.033 267.291 230.009C267.291 229.985 267.294 229.962 267.294 229.937C267.294 229.913 267.291 229.89 267.291 229.866Z" fill="#CDCDCD"/>
<path d="M267.294 229.794C267.294 235.589 259.078 240.287 248.943 240.287C238.809 240.287 230.593 235.589 230.593 229.794C230.593 224 238.809 219.301 248.943 219.301C259.078 219.301 267.294 224 267.294 229.794Z" fill="#EBEBEB"/>
<path d="M282.085 192.568C281.722 192.568 281.427 192.273 281.427 191.909V189.387H282.744V191.909C282.744 192.273 282.449 192.568 282.085 192.568Z" fill="#7C4B2F"/>
<path d="M282.032 177.996L278.786 186.843C278.225 188.372 279.356 189.992 280.984 189.992H283.187C284.825 189.992 285.957 188.352 285.376 186.82L282.032 177.996Z" fill="#498902"/>
<path d="M227.892 152.511C227.528 152.511 227.233 152.217 227.233 151.853V149.331H228.55V151.853C228.55 152.217 228.255 152.511 227.892 152.511Z" fill="#7C4B2F"/>
<path d="M227.838 137.94L224.592 146.787C224.031 148.315 225.163 149.936 226.79 149.936H228.993C230.631 149.936 231.764 148.296 231.182 146.764L227.838 137.94Z" fill="#498902"/>
<path d="M157.204 257.757C156.84 257.757 156.546 257.462 156.546 257.099V254.577H157.863V257.099C157.863 257.462 157.568 257.757 157.204 257.757Z" fill="#7C4B2F"/>
<path d="M157.151 243.186L153.904 252.033C153.344 253.561 154.475 255.182 156.103 255.182H158.305C159.944 255.182 161.076 253.542 160.495 252.01L157.151 243.186Z" fill="#498902"/>
<path d="M91.2293 302.526C90.8656 302.526 90.5707 302.231 90.5707 301.867V299.345H91.888V301.867C91.888 302.231 91.5931 302.526 91.2293 302.526Z" fill="#7C4B2F"/>
<path d="M91.1757 287.954L87.9295 296.801C87.369 298.33 88.5003 299.95 90.1281 299.95H92.3305C93.9691 299.95 95.1012 298.31 94.5201 296.778L91.1757 287.954Z" fill="#498902"/>
<path d="M29.9669 264.826C29.6031 264.826 29.3082 264.531 29.3082 264.167V261.645H30.6255V264.167C30.6255 264.531 30.3306 264.826 29.9669 264.826Z" fill="#7C4B2F"/>
<path d="M29.9133 250.254L26.667 259.101C26.1065 260.63 27.2378 262.25 28.8657 262.25H31.0681C32.7067 262.25 33.8388 260.611 33.2577 259.078L29.9133 250.254Z" fill="#498902"/>
<path d="M173.698 346.509C173.334 346.509 173.039 346.214 173.039 345.851V343.329H174.357V345.851C174.357 346.214 174.062 346.509 173.698 346.509Z" fill="#7C4B2F"/>
<path d="M173.644 331.938L170.398 340.785C169.838 342.313 170.969 343.934 172.597 343.934H174.799C176.438 343.934 177.57 342.294 176.989 340.762L173.644 331.938Z" fill="#498902"/>
<path d="M282.871 368.501C282.507 368.501 282.212 368.206 282.212 367.842V365.32H283.529V367.842C283.529 368.206 283.235 368.501 282.871 368.501Z" fill="#7C4B2F"/>
<path d="M282.817 353.929L279.571 362.776C279.01 364.305 280.142 365.925 281.77 365.925H283.972C285.611 365.925 286.743 364.285 286.162 362.753L282.817 353.929Z" fill="#498902"/>
<path d="M317.429 344.938C317.065 344.938 316.77 344.643 316.77 344.28V341.758H318.088V344.28C318.088 344.643 317.793 344.938 317.429 344.938Z" fill="#7C4B2F"/>
<path d="M317.375 330.367L314.129 339.214C313.569 340.742 314.7 342.363 316.328 342.363H318.53C320.169 342.363 321.301 340.723 320.72 339.191L317.375 330.367Z" fill="#498902"/>
<path d="M395.185 296.243C394.821 296.243 394.527 295.948 394.527 295.584V293.062H395.844V295.584C395.844 295.948 395.549 296.243 395.185 296.243Z" fill="#7C4B2F"/>
<path d="M395.132 281.671L391.885 290.518C391.325 292.046 392.456 293.667 394.084 293.667H396.286C397.925 293.667 399.057 292.027 398.476 290.495L395.132 281.671Z" fill="#498902"/>
<path d="M326.854 249.118C326.49 249.118 326.195 248.823 326.195 248.459V245.937H327.513V248.459C327.513 248.823 327.218 249.118 326.854 249.118Z" fill="#7C4B2F"/>
<path d="M326.8 234.546L323.554 243.393C322.994 244.922 324.125 246.542 325.753 246.542H327.955C329.594 246.542 330.726 244.902 330.145 243.37L326.8 234.546Z" fill="#498902"/>
<path d="M469.8 253.045C469.436 253.045 469.141 252.75 469.141 252.386V249.864H470.458V252.386C470.458 252.75 470.163 253.045 469.8 253.045Z" fill="#7C4B2F"/>
<path d="M469.746 238.473L466.5 247.32C465.939 248.849 467.071 250.469 468.699 250.469H470.901C472.54 250.469 473.672 248.829 473.091 247.297L469.746 238.473Z" fill="#498902"/>
</svg>
