<svg width="7359" height="4667" viewBox="0 0 7359 4667" fill="none" xmlns="http://www.w3.org/2000/svg">
<path d="M1447.88 2841.87C1428.26 2828.25 1408.86 2814.35 1389.85 2799.93C1370.83 2785.54 1352.17 2770.69 1334.2 2755.03C1316.27 2739.38 1298.85 2723.07 1283.29 2705.07C1279.42 2700.54 1275.66 2695.92 1272.15 2691.11C1268.64 2686.29 1265.36 2681.31 1262.54 2676.01C1259.8 2670.7 1257.32 2665.1 1256.7 2658.82C1256.4 2655.72 1256.7 2652.3 1258.41 2649.24C1259.26 2647.74 1260.44 2646.38 1261.85 2645.31C1263.25 2644.26 1264.81 2643.52 1266.41 2642.96C1269.64 2641.91 1272.92 2641.67 1276.12 2641.75C1279.31 2641.85 1282.42 2642.29 1285.48 2642.92C1291.58 2644.21 1297.4 2646.22 1303.07 2648.54C1314.36 2653.26 1324.95 2659.31 1334.95 2666.06C1354.95 2679.63 1372.76 2696.01 1388.31 2714.14C1419.42 2750.43 1441.31 2794.07 1451.52 2840.2L1451.07 2839.14L1548.49 2993.6L1645.45 3148.34L1742.04 3303.28L1838.32 3458.43C1902.41 3561.9 1966.2 3665.55 2029.79 3769.31L2077.36 3847.21L2101.13 3886.16L2124.79 3925.19C2156.27 3977.25 2187.94 4029.21 2219.16 4081.42C2186.12 4030.25 2153.53 3978.84 2120.75 3927.53L2096.19 3889.02L2071.77 3850.44L2022.94 3773.27C1957.98 3670.29 1893.25 3567.19 1828.8 3463.92L1732.26 3308.95L1636.05 3153.78L1540.23 2998.38L1444.84 2842.74L1444.52 2842.21L1444.38 2841.65C1434.87 2796.51 1413.88 2753.63 1383.71 2717.78C1368.61 2699.89 1351.38 2683.56 1332 2670.08C1322.3 2663.35 1312.05 2657.32 1301.22 2652.63C1295.79 2650.33 1290.21 2648.34 1284.53 2647.07C1281.67 2646.44 1278.8 2646 1275.96 2645.89C1273.13 2645.77 1270.3 2645.95 1267.78 2646.76C1266.52 2647.18 1265.36 2647.72 1264.36 2648.45C1263.37 2649.19 1262.56 2650.09 1261.96 2651.13C1260.74 2653.21 1260.4 2655.87 1260.61 2658.53C1261.06 2663.91 1263.27 2669.32 1265.85 2674.41C1268.47 2679.52 1271.61 2684.44 1275.01 2689.21C1278.39 2693.95 1282.01 2698.57 1285.78 2703.08C1300.95 2721.09 1318.07 2737.55 1335.76 2753.4C1371.28 2784.92 1409.17 2813.98 1447.88 2841.87Z" fill="#F7F7F7"/>
<path d="M1466.74 2870.69C1427.23 2858.48 1387.51 2846.81 1347.21 2837.78C1327.07 2833.35 1306.77 2829.35 1286.38 2827.38C1276.21 2826.45 1265.95 2825.9 1256.1 2826.81C1251.25 2827.29 1246.3 2828.15 1242.6 2830.01C1240.74 2830.93 1239.38 2832.1 1238.89 2833.19C1238.4 2834.25 1238.37 2835.54 1239.05 2837.26C1239.66 2838.93 1240.9 2840.73 1242.33 2842.41C1243.77 2844.11 1245.47 2845.72 1247.28 2847.24C1250.92 2850.31 1255 2853.06 1259.26 2855.57C1267.78 2860.57 1276.99 2864.71 1286.43 2868.24C1305.36 2875.25 1325.34 2879.79 1345.51 2882.05C1355.6 2883.19 1365.76 2883.7 1375.9 2883.66C1386.05 2883.65 1396.18 2883.01 1406.21 2881.72C1426.29 2879.18 1445.97 2873.94 1464.45 2866.13L1461.56 2868.89C1480.79 2827.92 1491.98 2783.36 1493.67 2738.39C1494.54 2715.92 1493.23 2693.31 1488.88 2671.31C1486.69 2660.33 1483.74 2649.47 1479.6 2639.19C1477.5 2634.07 1475.11 2629.09 1472.24 2624.56C1470.8 2622.28 1469.23 2620.16 1467.51 2618.3C1465.79 2616.48 1463.89 2614.91 1462.12 2614.16C1460.31 2613.43 1459.13 2613.44 1457.67 2614.19C1456.19 2614.98 1454.61 2616.76 1453.37 2618.85C1450.82 2623.13 1449.2 2628.45 1447.96 2633.77C1445.54 2644.51 1444.69 2655.83 1444.24 2667.07C1443.44 2689.66 1444.79 2712.46 1446.89 2735.12C1451.08 2780.52 1458.57 2825.67 1466.74 2870.69C1455.97 2826.18 1446.94 2781.21 1441.12 2735.71C1438.37 2712.93 1436.35 2690.02 1436.5 2666.92C1436.67 2655.35 1437.33 2643.75 1439.68 2632.09C1440.95 2626.27 1442.47 2620.42 1445.7 2614.67C1447.37 2611.84 1449.47 2608.87 1453.14 2606.72C1454.92 2605.66 1457.18 2604.94 1459.46 2604.87C1461.73 2604.78 1463.89 2605.29 1465.73 2606.04C1469.42 2607.58 1472.07 2609.87 1474.37 2612.2C1476.66 2614.58 1478.57 2617.09 1480.29 2619.66C1483.7 2624.82 1486.36 2630.21 1488.68 2635.68C1493.27 2646.66 1496.47 2657.98 1498.9 2669.39C1503.68 2692.26 1505.38 2715.56 1504.66 2738.74C1503.05 2785.13 1491.93 2831.21 1471.92 2873.44L1471 2875.36L1469.02 2876.18C1429.88 2892.62 1386.15 2897.53 1344.21 2892.26C1323.23 2889.63 1302.54 2884.68 1282.82 2877.11C1272.97 2873.3 1263.36 2868.81 1254.28 2863.22C1249.74 2860.42 1245.35 2857.32 1241.23 2853.74C1239.19 2851.92 1237.23 2849.98 1235.42 2847.77C1233.63 2845.55 1231.92 2843.13 1230.83 2840.08C1230.29 2838.55 1229.88 2836.86 1229.89 2835.03C1229.89 2833.19 1230.34 2831.25 1231.22 2829.56C1232.11 2827.88 1233.33 2826.43 1234.67 2825.36C1235.99 2824.29 1237.39 2823.43 1238.79 2822.79C1244.42 2820.2 1249.94 2819.53 1255.38 2819.05C1266.22 2818.25 1276.77 2819.18 1287.21 2820.42C1308.04 2823.04 1328.39 2827.56 1348.52 2832.71C1388.72 2843.18 1428.02 2856.3 1466.74 2870.69Z" fill="#F7F7F7"/>
<path d="M1499.56 2916.56C1485.86 2916.47 1472.16 2916.45 1458.47 2916.51C1444.77 2916.56 1431.06 2916.63 1417.37 2916.81C1389.98 2917.18 1362.61 2917.96 1335.29 2919.37C1307.99 2920.8 1280.69 2922.63 1253.69 2926.12C1240.21 2927.88 1226.76 2930.01 1213.73 2933.13C1207.24 2934.71 1200.77 2936.57 1194.98 2939.13C1192.15 2940.4 1189.36 2941.95 1187.65 2943.63C1186.8 2944.45 1186.43 2945.22 1186.44 2945.52C1186.41 2945.68 1186.46 2945.78 1186.52 2946.02C1186.61 2946.26 1186.81 2946.58 1187.12 2946.95C1188.42 2948.52 1191.15 2950.13 1193.91 2951.37C1196.73 2952.66 1199.79 2953.69 1202.92 2954.61C1209.21 2956.44 1215.77 2957.76 1222.37 2958.81C1235.62 2960.88 1249.12 2961.93 1262.65 2962.42C1289.71 2963.29 1316.9 2961.74 1343.74 2958.2C1370.61 2954.61 1397.17 2949.11 1423.01 2941.32C1448.83 2933.53 1473.89 2923.45 1497.39 2910.69L1496.27 2911.47C1534.27 2876.89 1569.41 2839.13 1598.15 2797.19C1612.51 2776.27 1625.36 2754.29 1635.03 2731.16C1639.81 2719.6 1643.84 2707.73 1646.07 2695.7C1647.14 2689.7 1647.83 2683.63 1647.51 2677.84C1647.32 2674.97 1646.91 2672.13 1646.05 2669.66C1645.22 2667.19 1643.91 2665.17 1642.34 2664.1C1640.84 2663.01 1638.83 2662.69 1636.36 2663.14C1633.91 2663.54 1631.26 2664.74 1628.72 2666.14C1623.61 2669.1 1618.89 2673.21 1614.49 2677.6C1605.68 2686.47 1598.06 2696.67 1590.96 2707.17C1576.82 2728.25 1564.97 2750.89 1554.18 2773.92C1543.31 2796.95 1533.58 2820.5 1524.61 2844.35C1520.12 2856.27 1515.84 2868.26 1511.7 2880.32C1507.5 2892.34 1503.46 2904.42 1499.56 2916.56C1502.89 2904.26 1506.35 2892.01 1509.99 2879.79C1513.69 2867.61 1517.57 2855.45 1521.63 2843.36C1529.82 2819.19 1538.71 2795.22 1548.87 2771.69C1559.16 2748.23 1570.53 2725.1 1584.45 2703.19C1591.45 2692.27 1599.13 2681.65 1608.36 2672C1613 2667.22 1618.03 2662.61 1624.15 2658.92C1627.26 2657.11 1630.62 2655.43 1634.66 2654.66C1636.67 2654.27 1638.85 2654.1 1641.1 2654.42C1643.35 2654.73 1645.65 2655.57 1647.57 2656.88C1651.45 2659.48 1653.58 2663.26 1654.85 2666.74C1656.15 2670.28 1656.67 2673.79 1656.97 2677.23C1657.49 2684.12 1656.81 2690.77 1655.71 2697.28C1653.42 2710.29 1649.35 2722.71 1644.52 2734.77C1634.72 2758.86 1621.83 2781.49 1607.35 2803C1592.76 2824.48 1576.52 2844.82 1559.2 2864.22C1541.85 2883.59 1523.44 2902.04 1504.07 2919.48L1503.56 2919.96L1502.97 2920.28C1478.64 2933.38 1452.83 2943.68 1426.33 2951.58C1399.82 2959.49 1372.62 2965.05 1345.13 2968.4C1317.68 2971.76 1289.95 2973.09 1262.24 2971.95C1248.4 2971.35 1234.54 2970.12 1220.78 2967.74C1213.88 2966.53 1207.03 2965.05 1200.22 2962.96C1196.8 2961.91 1193.42 2960.69 1190.06 2959.12C1188.37 2958.34 1186.7 2957.43 1185.05 2956.35C1183.41 2955.26 1181.74 2953.99 1180.24 2952.14C1179.48 2951.21 1178.78 2950.13 1178.32 2948.79C1177.84 2947.47 1177.63 2945.89 1177.86 2944.41C1178.32 2941.38 1180.02 2939.31 1181.57 2937.8C1184.77 2934.84 1188.16 2933.22 1191.5 2931.74C1198.22 2928.9 1204.99 2927.11 1211.8 2925.54C1225.42 2922.47 1239.09 2920.62 1252.8 2919.13C1280.2 2916.22 1307.64 2914.84 1335.09 2914.15C1362.53 2913.51 1389.95 2913.55 1417.37 2913.98C1431.09 2914.19 1444.8 2914.49 1458.48 2914.92C1472.19 2915.39 1485.87 2915.94 1499.56 2916.56Z" fill="#F7F7F7"/>
<path d="M2116.57 2682.79C2134.13 2641.81 2150.39 2600.26 2163.5 2557.79C2169.96 2536.54 2175.64 2515.02 2178.94 2493.18C2179.74 2487.72 2180.39 2482.24 2180.74 2476.76C2181.09 2471.28 2181.19 2465.79 2180.76 2460.36C2180.28 2454.99 2179.37 2449.55 2177.01 2444.93C2175.84 2442.66 2174.23 2440.63 2172.16 2439.52C2171.16 2438.93 2170.05 2438.57 2168.86 2438.45C2167.69 2438.32 2166.47 2438.41 2165.22 2438.68C2162.75 2439.2 2160.34 2440.36 2158.08 2441.8C2155.81 2443.23 2153.68 2444.95 2151.67 2446.79C2147.66 2450.51 2144.1 2454.76 2140.85 2459.2C2134.34 2468.11 2129.03 2477.87 2124.5 2487.9C2115.46 2508.06 2109.63 2529.49 2106.33 2551.2C2099.77 2594.69 2104.28 2639.59 2119.28 2680.98L2119.49 2681.48V2682.08L2120.12 2854.13L2120.28 3026.19L2120.02 3198.25L2119.39 3370.3C2118.87 3485 2118.04 3599.7 2116.96 3714.4L2116.03 3800.42L2115.55 3843.44L2114.92 3886.44C2114.07 3943.79 2113.38 4001.14 2112.21 4058.5C2111.37 4001.14 2111 3943.79 2110.45 3886.44L2110.07 3843.43L2109.83 3800.41L2109.37 3714.38C2108.92 3599.68 2108.72 3484.98 2108.83 3370.27L2109.15 3198.21L2109.85 3026.16L2110.97 2854.11L2112.56 2682.06L2112.73 2683.15C2097.77 2640.63 2093.63 2594.67 2100.72 2550.4C2104.26 2528.27 2110.56 2506.5 2120.06 2486.02C2124.83 2475.79 2130.4 2465.88 2137.27 2456.71C2140.7 2452.16 2144.47 2447.78 2148.8 2443.85C2150.97 2441.92 2153.31 2440.08 2155.87 2438.5C2158.43 2436.94 2161.23 2435.57 2164.41 2434.94C2165.98 2434.63 2167.65 2434.49 2169.34 2434.71C2171.01 2434.92 2172.68 2435.48 2174.13 2436.32C2177.08 2438 2179.03 2440.67 2180.37 2443.34C2183.04 2448.76 2183.82 2454.51 2184.27 2460.13C2184.64 2465.77 2184.47 2471.39 2184.03 2476.98C2183.58 2482.56 2182.88 2488.11 2181.98 2493.61C2178.36 2515.65 2172.37 2537.17 2165.59 2558.38C2158.82 2579.63 2151.08 2600.54 2142.8 2621.24C2134.54 2641.95 2125.7 2662.45 2116.57 2682.79Z" fill="#F7F7F7"/>
<path d="M2115.7 2715.21C2140.07 2685.24 2165.59 2656.06 2193.15 2628.61C2207 2614.94 2221.36 2601.7 2237.07 2589.75C2244.98 2583.83 2253.13 2578.12 2262.38 2573.67C2267.05 2571.54 2271.92 2569.46 2277.82 2568.94C2279.29 2568.81 2280.88 2568.86 2282.52 2569.11C2284.13 2569.35 2285.88 2569.94 2287.46 2570.91C2289.04 2571.87 2290.36 2573.26 2291.29 2574.76C2292.23 2576.27 2292.75 2577.82 2293.07 2579.31C2293.73 2582.35 2293.56 2585.11 2293.21 2587.78C2292.86 2590.44 2292.23 2592.94 2291.46 2595.39C2289.92 2600.27 2287.9 2604.85 2285.59 2609.26C2281.02 2618.11 2275.4 2626.29 2269.29 2634.03C2256.98 2649.48 2242.59 2663.26 2226.75 2675.26C2195.15 2699.28 2156.9 2715.81 2116.61 2720.78L2114.55 2721.04L2112.84 2719.89C2075.17 2694.77 2042.8 2662.33 2018.07 2625.18C2005.76 2606.56 1995.36 2586.71 1987.72 2565.79C1983.95 2555.31 1980.84 2544.55 1979.07 2533.44C1978.18 2527.85 1977.64 2522.2 1977.84 2516.37C1977.93 2513.48 1978.22 2510.51 1978.89 2507.51C1979.6 2504.5 1980.59 2501.38 1982.84 2498.4C1983.95 2496.91 1985.45 2495.5 1987.37 2494.5C1989.26 2493.5 1991.47 2493.04 1993.47 2493.04C1997.55 2493.07 2000.8 2494.52 2003.57 2496.04C2009.11 2499.23 2013.34 2503.29 2017.28 2507.45C2025.09 2515.87 2031.49 2525.05 2037.47 2534.44C2049.3 2553.25 2059.2 2572.93 2068.45 2592.83C2086.68 2632.77 2102.03 2673.76 2115.7 2715.21C2099.65 2674.57 2082.95 2634.14 2063.45 2595.06C2053.7 2575.54 2043.3 2556.29 2031.24 2538.2C2025.2 2529.21 2018.78 2520.38 2011.37 2512.72C2007.66 2508.95 2003.64 2505.35 1999.43 2503.07C1997.34 2501.94 1995.14 2501.24 1993.55 2501.29C1991.97 2501.35 1991.01 2501.89 1989.87 2503.35C1988.82 2504.8 1988.05 2506.97 1987.59 2509.25C1987.1 2511.57 1986.91 2514.07 1986.87 2516.59C1986.82 2521.64 1987.37 2526.85 1988.26 2532.03C1990.05 2542.36 1993.12 2552.63 1996.87 2562.63C2004.43 2582.68 2014.8 2601.77 2026.86 2619.73C2050.95 2655.69 2082.61 2686.85 2119.03 2711.3L2115.26 2710.41C2134.32 2708.11 2153.05 2703.14 2170.74 2695.78C2179.61 2692.12 2188.23 2687.87 2196.51 2683.14C2204.82 2678.4 2212.86 2673.2 2220.53 2667.53C2235.88 2656.19 2249.92 2643.1 2261.84 2628.48C2267.79 2621.15 2273.23 2613.46 2277.67 2605.35C2279.88 2601.31 2281.82 2597.13 2283.27 2592.92C2283.96 2590.83 2284.54 2588.69 2284.84 2586.63C2285.17 2584.59 2285.29 2582.54 2284.96 2580.88C2284.63 2579.16 2283.96 2578.12 2283.02 2577.49C2282.06 2576.82 2280.34 2576.51 2278.38 2576.64C2274.4 2576.84 2269.92 2578.47 2265.73 2580.35C2257.21 2584.24 2249.09 2589.51 2241.27 2595.06C2225.59 2606.26 2211.01 2619.06 2196.78 2632.15C2168.4 2658.46 2141.84 2686.65 2115.7 2715.21Z" fill="#F7F7F7"/>
<path d="M2112.04 2768.13C2122.92 2761.21 2133.83 2754.3 2144.79 2747.49C2155.76 2740.7 2166.82 2734.03 2177.91 2727.41C2200.12 2714.18 2222.52 2701.27 2245.27 2688.87C2268.05 2676.54 2291.17 2664.78 2315.05 2654.28C2327.01 2649.05 2339.14 2644.14 2351.79 2640.26C2358.16 2638.34 2364.6 2636.62 2371.52 2635.78C2375.01 2635.42 2378.58 2635.15 2382.71 2636.07C2384.73 2636.57 2387.17 2637.46 2389.09 2639.74C2390.02 2640.83 2390.64 2642.23 2390.92 2643.51C2391.21 2644.83 2391.19 2646.05 2391.05 2647.16C2390.74 2649.38 2390.04 2651.22 2389.23 2652.88C2388.44 2654.54 2387.5 2656.05 2386.53 2657.49C2384.57 2660.36 2382.43 2662.94 2380.17 2665.39C2375.67 2670.32 2370.79 2674.74 2365.77 2678.95C2355.72 2687.38 2345.03 2694.9 2334.01 2701.9C2311.94 2715.86 2288.6 2727.78 2264.44 2737.95C2240.31 2748.12 2215.27 2756.37 2189.61 2762.35C2163.95 2768.34 2137.64 2772.07 2111.14 2772.78L2110.49 2772.8L2109.83 2772.66C2085.19 2767.5 2060.82 2761.05 2036.84 2753.37C2012.89 2745.66 1989.33 2736.67 1966.59 2725.96C1943.86 2715.19 1921.89 2702.74 1901.71 2687.67C1891.67 2680.06 1882.07 2671.83 1873.63 2662.27C1869.44 2657.47 1865.54 2652.34 1862.48 2646.47C1860.98 2643.53 1859.63 2640.41 1858.89 2636.89C1858.2 2633.45 1858.02 2629.35 1859.87 2625.4C1860.78 2623.46 1862.23 2621.69 1863.91 2620.38C1865.6 2619.05 1867.46 2618.17 1869.3 2617.53C1872.99 2616.27 1876.6 2616.06 1880.03 2616.08C1886.91 2616.23 1893.36 2617.63 1899.56 2619.35C1911.98 2622.91 1923.62 2628 1934.86 2633.62C1957.33 2644.98 1978.27 2658.56 1998.55 2672.88C2018.74 2687.36 2038.13 2702.76 2057.01 2718.69C2066.45 2726.65 2075.75 2734.76 2084.93 2742.98C2094.09 2751.26 2103.09 2759.66 2112.04 2768.13C2102.72 2760.06 2093.32 2752.06 2083.8 2744.2C2074.34 2736.31 2064.78 2728.52 2055.09 2720.87C2035.71 2705.61 2015.84 2690.92 1995.34 2677.21C1974.88 2663.46 1953.76 2650.51 1931.55 2639.93C1920.46 2634.67 1909.06 2629.91 1897.38 2626.81C1891.57 2625.28 1885.62 2624.15 1879.97 2624.13C1877.18 2624.17 1874.4 2624.44 1872.22 2625.26C1869.94 2626.07 1868.47 2627.27 1867.8 2628.88C1867.06 2630.46 1867 2632.74 1867.58 2635.15C1868.11 2637.58 1869.21 2640.08 1870.51 2642.53C1873.17 2647.43 1876.8 2652.04 1880.71 2656.46C1888.62 2665.23 1897.9 2673.06 1907.65 2680.25C1927.23 2694.61 1948.82 2706.53 1971.15 2716.87C2015.82 2737.68 2063.63 2752.03 2112.15 2762.43L2110.87 2762.32C2136.51 2761.7 2162.08 2758.17 2187.13 2752.41C2212.17 2746.63 2236.68 2738.64 2260.44 2728.96C2284.17 2719.23 2307.2 2707.71 2328.87 2694.27C2339.68 2687.53 2350.19 2680.32 2359.96 2672.43C2364.84 2668.45 2369.54 2664.3 2373.74 2659.84C2375.85 2657.64 2377.81 2655.33 2379.47 2652.97C2381.12 2650.64 2382.53 2648.04 2382.79 2646.17C2382.86 2645.71 2382.86 2645.34 2382.81 2645.13C2382.75 2644.9 2382.73 2644.79 2382.61 2644.66C2382.47 2644.43 2381.79 2643.97 2380.68 2643.68C2378.44 2643.13 2375.39 2643.16 2372.41 2643.45C2366.39 2644.08 2360.18 2645.61 2354.07 2647.35C2341.84 2650.95 2329.76 2655.52 2317.84 2660.41C2294.03 2670.26 2270.77 2681.59 2247.75 2693.25C2224.69 2704.92 2201.92 2717.16 2179.34 2729.73C2168.05 2736 2156.83 2742.39 2145.61 2748.79C2134.38 2755.18 2123.2 2761.63 2112.04 2768.13Z" fill="#F7F7F7"/>
<path fill-rule="evenodd" clip-rule="evenodd" d="M3721.96 1046.25C3720.55 1103.64 3716.31 1214.96 3678.89 1266.26C3641.5 1317.55 3941.04 1409.52 3926.72 1357.47C3912.43 1305.42 3906.78 1282.19 3984.48 1159.2C4062.18 1036.18 3746.87 957.006 3721.96 1046.25Z" fill="#FBB6AD"/>
<path fill-rule="evenodd" clip-rule="evenodd" d="M4050.38 832.453C4061.05 896.423 4079.93 983.158 4104.72 1016.16C4129.51 1049.13 4119.69 1056.16 4077.61 1073.1C4035.56 1090.04 4067.39 1213.72 4035.38 1234.19C4003.36 1254.66 3834.67 1209.6 3786.88 1153.19C3739.07 1096.77 3732.02 1051.98 3744.86 974.834C3757.7 897.717 4021.5 742.218 4050.38 832.453Z" fill="#FFD3CC"/>
<path fill-rule="evenodd" clip-rule="evenodd" d="M3772.57 980.213C3832.14 980.821 3886.76 789.842 4053.79 852.082C4055.87 739.858 3901.42 658.784 3734.45 727.051C3567.44 795.318 3611.19 995.918 3679.59 1063.17C3747.97 1130.42 3739.49 1021.62 3772.57 980.213Z" fill="#212121"/>
<path fill-rule="evenodd" clip-rule="evenodd" d="M3723.84 930.512C3745.67 921.727 3773.39 937.869 3785.8 966.555C3798.21 995.242 3790.58 1025.63 3768.78 1034.41C3746.95 1043.17 3719.2 1027.03 3706.79 998.344C3694.41 969.657 3702.01 939.269 3723.84 930.512Z" fill="#FFD3CC"/>
<path d="M4470.37 2012.65C4464.66 2004.36 4405.63 1993.05 4387.46 1996.16L3948.57 1874.31L3936.86 1561.45L3785.76 1573.81C3785.76 1573.81 3811.21 1958.75 3831.93 1982.9C3852.65 2007.05 4359.6 2053.33 4359.6 2053.33C4395.62 2056.73 4391.6 2110.7 4391.6 2110.7C4391.6 2110.7 4436.43 2112.46 4456.21 2100.75C4476.01 2089.03 4477.15 2022.48 4470.37 2012.65Z" fill="#FFD3CC"/>
<path d="M2805.42 3903.92L2782.78 3955.41C2779.45 3962.98 2770.38 3966.51 2762.52 3963.3L2759.65 3962.13C2751.79 3958.91 2748.14 3950.17 2751.46 3942.59L2774.12 3891.11C2777.45 3883.53 2786.52 3880 2794.36 3883.21L2797.25 3884.39C2805.08 3887.6 2808.76 3896.35 2805.42 3903.92Z" fill="#90C33C"/>
<path d="M4518.41 4128.01C4563.31 4247.12 4699.55 4308.66 4822.77 4265.46C4945.99 4222.25 5009.49 4090.69 4964.58 3971.56C4919.72 3852.44 4783.44 3790.94 4660.22 3834.15C4536.96 3877.31 4473.5 4008.89 4518.41 4128.01Z" fill="#333333"/>
<path d="M4573 4101.92C4606.89 4191.85 4708.31 4238.79 4799.48 4206.83C4890.65 4174.86 4937.13 4076.08 4903.24 3986.16C4869.31 3896.23 4767.97 3849.25 4676.76 3881.21C4585.59 3913.22 4539.15 4012.04 4573 4101.92Z" fill="#231F20"/>
<path d="M4620.77 4089.16C4645.36 4154.47 4718.99 4188.57 4785.21 4165.38C4851.43 4142.14 4885.12 4070.42 4860.53 4005.16C4835.94 3939.84 4762.3 3905.75 4696.09 3928.94C4629.87 3952.18 4596.18 4023.9 4620.77 4089.16Z" fill="#414042"/>
<path d="M4602.83 3373.98L4526.95 3391.56L4196.65 2113.59L4272.36 2095.39L4602.83 3373.98Z" fill="#333333"/>
<path d="M4521.98 2154.72C4463.56 2149.23 4339.25 2144.71 4290.64 2197.63L4264.02 2095.38C4264.02 2095.38 4347.25 2104.6 4367.91 2058.01C4377.43 2036.45 4438.52 1965.19 4463.66 2041.94C4475.03 2076.62 4441.62 2103.05 4524.78 2145.33C4529.79 2147.85 4527.65 2155.27 4521.98 2154.72Z" fill="#333333"/>
<path d="M4496.7 2150.14L4496.67 2150.25C4496.44 2152.81 4492.27 2197.94 4472.14 2252.05C4462.07 2279.11 4448.04 2308.42 4428.53 2335.78C4409.05 2363.14 4384.14 2388.56 4352.33 2407.95L4356.04 2413.59C4389.32 2393.3 4415.15 2366.68 4435.19 2338.22C4465.25 2295.52 4482.3 2248.69 4491.88 2212.52C4501.49 2176.34 4503.58 2150.81 4503.58 2150.66L4496.7 2150.14Z" fill="#90C33C"/>
<path d="M4702.76 4088.28L4774.62 4072.76C4785.71 4070.38 4792.66 4059.72 4790.03 4049.03L4627.59 3381.62C4624.93 3370.75 4613.52 3364.16 4602.39 3367.07L4516.02 3389.5C4505.2 3392.35 4498.74 3403.01 4501.58 3413.5L4678.53 4073.99C4681.26 4084.26 4691.98 4090.59 4702.76 4088.28Z" fill="#F2F0F5"/>
<path d="M4539.61 3551.99C4539.61 3551.99 4522.52 3615.54 4480.37 3684.83C4434.29 3760.5 4247.65 3981.54 4247.65 3981.54L4377.28 3980.03L4586.56 3722.46L4539.61 3551.99Z" fill="#EFF0EF"/>
<path d="M3265.31 4112.62H4331.98L4399.14 4003.14H3265.31V4112.62Z" fill="#F4F8F9"/>
<path d="M3290.31 3974.04L4402.23 3978.06L4449.1 4004.14H3290.31V3974.04Z" fill="#333333"/>
<path d="M2992.93 4100.58V4100.91H3264.09V4012.88H2992.7C2991.27 4012.88 2990.08 4014 2990.08 4015.4V4098.18C2990.08 4099.69 2991.34 4100.91 2992.93 4100.91V4100.58V4100.25C2991.75 4100.25 2990.79 4099.31 2990.79 4098.18V4015.4C2990.79 4014.37 2991.65 4013.55 2992.7 4013.55H3263.41V4100.25H2992.93V4100.58Z" fill="black"/>
<path d="M3017.28 4075.71V4076.03H3204.92C3205.69 4076.03 3206.31 4075.44 3206.31 4074.7V4038.29C3206.31 4037.55 3205.69 4036.95 3204.92 4036.95H3017.28C3016.51 4036.95 3015.89 4037.55 3015.89 4038.29V4074.7C3015.89 4075.44 3016.51 4076.03 3017.28 4076.03V4075.71V4075.38C3016.88 4075.36 3016.59 4075.07 3016.59 4074.7V4038.29C3016.59 4037.92 3016.88 4037.61 3017.28 4037.61H3204.92C3205.29 4037.61 3205.62 4037.92 3205.62 4038.29V4074.7C3205.62 4075.07 3205.29 4075.36 3204.92 4075.38H3017.28V4075.71Z" fill="black"/>
<path d="M3037.54 4061.91V4062.24H3184.38C3184.7 4062.24 3184.97 4061.99 3184.97 4061.67V4053.08C3184.97 4052.76 3184.7 4052.51 3184.38 4052.51H3037.54C3037.22 4052.51 3036.95 4052.76 3036.95 4053.08V4061.67C3036.95 4061.99 3037.22 4062.24 3037.54 4062.24V4061.91V4061.58V4061.67H3037.64L3037.54 4061.58V4061.67H3037.64V4053.08H3037.54V4053.18L3037.64 4053.08H3037.54V4053.18H3184.38V4053.08H3184.28L3184.38 4053.18V4053.08H3184.28V4061.67H3184.38V4061.58L3184.28 4061.67H3184.38V4061.58H3037.54V4061.91Z" fill="black"/>
<path d="M3265.34 4077.47H3543.29V4003.15H3265.34V4077.47Z" fill="#F4F8F9"/>
<path d="M2799.91 4055.87C2799.91 4182.62 2906.19 4285.34 3037.31 4285.34C3168.43 4285.34 3274.7 4182.62 3274.7 4055.87C3274.7 3929.15 3168.43 3826.39 3037.31 3826.39C2906.19 3826.39 2799.91 3929.15 2799.91 4055.87Z" fill="#333333"/>
<path d="M2860.48 4049.36C2860.48 4145.04 2939.13 4222.59 3036.17 4222.59C3133.16 4222.59 3211.83 4145.04 3211.83 4049.36C3211.83 3953.69 3133.16 3876.1 3036.17 3876.1C2939.13 3876.1 2860.48 3953.69 2860.48 4049.36Z" fill="#231F20"/>
<path d="M2909.88 4053.09C2909.88 4122.59 2966.97 4178.89 3037.43 4178.89C3107.89 4178.89 3164.98 4122.59 3164.98 4053.09C3164.98 3983.64 3107.89 3927.31 3037.43 3927.31C2966.97 3927.31 2909.88 3983.64 2909.88 4053.09Z" fill="#414042"/>
<path d="M2950.3 3958.55L2971.56 3944.3L3022.2 4014.51L3000.97 4028.77L2950.3 3958.55Z" fill="#231F20"/>
<path d="M2908.98 4094.54L2903.46 4070.16L3002.03 4049.36L3007.58 4073.74L2908.98 4094.54Z" fill="#231F20"/>
<path d="M3053.99 4080.15L3066.67 4058.43L3154.62 4106.19L3141.92 4127.97L3053.99 4080.15Z" fill="#231F20"/>
<path d="M3068.58 4038.8L3050.29 4021.13L3121.65 3952.3L3139.95 3969.97L3068.58 4038.8Z" fill="#231F20"/>
<path d="M3029.44 4183.29L3003.78 4180.1L3016.65 4083.55L3042.28 4086.7L3029.44 4183.29Z" fill="#231F20"/>
<path d="M2760.46 3986.12C2761.81 3979.98 2763.5 3973.78 2765.37 3967.66C2809 3826.19 2963.28 3745.74 3109.85 3787.81C3189.74 3810.74 3259.18 3858.97 3292.09 3925.93C3329.87 3972.35 3399.61 3972.53 3399.61 3972.53C3399.61 3972.53 3341.83 3977.81 3316.86 3974.78C3291.86 3971.77 3268.96 3956.71 3262.2 3946.26C3235.01 3886.03 3170.21 3841.87 3099.94 3821.65C2973.45 3785.37 2831.06 3865.77 2793.44 3987.74C2791.03 3995.6 2757 4016.01 2757 4016.01C2756.16 4011.16 2759.08 3991.9 2760.46 3986.12Z" fill="#F4F8F9"/>
<path d="M4545.91 3380.94C4545.91 3380.94 4676.42 3624.44 4515.74 3710.42L4526.69 3720.49C4526.69 3720.49 4684.49 3646.75 4563.81 3377.18L4545.91 3380.94Z" fill="#90C33C"/>
<path d="M4478.26 3754.79L4481.26 3757.69C4485.74 3762.01 4493.09 3762.01 4497.6 3757.65L4525.94 3730.26C4530.42 3725.9 4530.42 3718.84 4525.91 3714.48L4522.94 3711.63C4518.39 3707.27 4511.08 3707.27 4506.56 3711.67L4478.26 3739.02C4473.74 3743.42 4473.74 3750.47 4478.26 3754.79Z" fill="#414042"/>
<path d="M2991.38 4053.09C2991.38 4077.67 3011.99 4097.51 3037.44 4097.51C3062.89 4097.51 3083.48 4077.67 3083.48 4053.09C3083.48 4028.56 3062.89 4008.72 3037.44 4008.72C3011.99 4008.72 2991.38 4028.56 2991.38 4053.09Z" fill="#130F0D"/>
<path d="M3015.4 4053.1C3015.4 4064.84 3025.26 4074.36 3037.44 4074.36C3049.59 4074.36 3059.48 4064.84 3059.48 4053.1C3059.48 4041.39 3049.59 4031.83 3037.44 4031.83C3025.26 4031.83 3015.4 4041.39 3015.4 4053.1Z" fill="#231F20"/>
<path d="M4456.6 4075.46C4455.72 4069.24 4455.08 4062.87 4454.69 4056.5C4445.62 3909.15 4562.09 3782.69 4714.75 3773.95C4797.95 3769.18 4880.27 3791.66 4934.94 3843.72C4932.21 3857.56 4906.88 3865.15 4896.81 3857.56C4848.59 3820.36 4790.61 3804.84 4717.41 3809.02C4585.69 3816.62 4480.35 3939.1 4488.18 4066.1C4488.67 4074.28 4463.97 4104.73 4463.97 4104.73C4461.46 4100.41 4457.35 4081.33 4456.6 4075.46Z" fill="#F3F1F6"/>
<path d="M3006.27 4109.75H3255.36C3283.27 4109.75 3305.92 4087.92 3305.92 4061V4044.67C3305.92 4017.74 3283.27 3995.92 3255.36 3995.92H3006.27C2978.36 3995.92 2955.72 4017.74 2955.72 4044.67V4061C2955.72 4087.92 2978.36 4109.75 3006.27 4109.75Z" fill="#F4F8F9"/>
<path d="M3364.12 4066.36H3012.3C3005.42 4066.36 2999.86 4060.99 2999.86 4054.36V4051.95C2999.86 4045.32 3005.42 4039.94 3012.3 4039.94H3364.12C3371 4039.94 3376.56 4045.32 3376.56 4051.95V4054.36C3376.56 4060.99 3371 4066.36 3364.12 4066.36Z" fill="#90C33C"/>
<path d="M4736.98 4048.64L4730.68 4050.2C4726.81 4051.17 4722.83 4048.91 4721.84 4045.15L4670.73 3853.39C4669.7 3849.63 4672.06 3845.8 4675.97 3844.84L4682.24 3843.28C4686.14 3842.32 4690.12 3844.57 4691.11 3848.33L4742.22 4040.1C4743.22 4043.86 4740.85 4047.68 4736.98 4048.64Z" fill="#90C33C"/>
<path d="M3803 3823.88C3803 3823.88 3740.67 3888.26 3770.69 3957.71H4111.73C4111.73 3957.71 4141.14 3923.6 4097.61 3904.88C4041.68 3880.85 3937.79 3857.43 3924.4 3823.88H3803Z" fill="#3C3E3F"/>
<path d="M3770.66 3969.77C3884.33 3969.77 3998.03 3969.77 4111.71 3969.77C4127.86 3969.77 4127.86 3945.65 4111.71 3945.65C3998.03 3945.65 3884.33 3945.65 3770.66 3945.65C3754.56 3945.65 3754.56 3969.77 3770.66 3969.77Z" fill="#E9E5E9"/>
<path d="M3966.28 3856.22C3963.45 3865.75 3949.52 3869.72 3941.01 3871.55C3934.71 3872.92 3937.4 3882.21 3943.67 3880.85C3956 3878.19 3972.05 3871.88 3975.98 3858.78C3977.69 3852.8 3968.09 3850.25 3966.28 3856.22Z" fill="#E9E5E9"/>
<path d="M3988.07 3863.91C3986.95 3873.75 3973.88 3879.88 3965.81 3883.06C3959.81 3885.43 3964.11 3894.18 3970.05 3891.83C3981.72 3887.22 3996.48 3878.42 3998.02 3864.88C3998.76 3858.68 3988.82 3857.72 3988.07 3863.91Z" fill="#E9E5E9"/>
<path d="M3942.93 3843.53C3939.02 3852.48 3924.95 3854.72 3916.48 3855.53C3910.18 3856.13 3911.66 3865.48 3917.89 3864.89C3930.19 3863.7 3946.61 3859.43 3951.96 3847.15C3954.46 3841.52 3945.37 3837.95 3942.93 3843.53Z" fill="#E9E5E9"/>
<path d="M4080.99 2314.94C4080.99 2314.94 4089.83 2888.36 4080.99 2984.89C4072.16 3081.4 3951.98 3651.67 3969.91 3861.88H3768.05C3768.05 3861.88 3726.88 3259.99 3826.98 2984.89C3826.98 2984.89 3696.84 2380.03 3721.89 2209.49L4080.99 2314.94Z" fill="#212121"/>
<path d="M3359.08 3766.82C3359.08 3766.82 3280.49 3823.29 3298.39 3902.19L3658.57 3965.22C3658.57 3965.22 3696.37 3934.64 3654.09 3906.83C3599.83 3871.12 3494.75 3827.17 3487.35 3789.28L3359.08 3766.82Z" fill="#3C3E3F"/>
<path d="M3295.98 3914.92C3416.02 3935.94 3536.12 3956.95 3656.19 3977.97C3673.19 3980.94 3677.98 3955.46 3660.99 3952.49C3540.92 3931.47 3420.82 3910.46 3300.78 3889.44C3283.75 3886.47 3278.96 3911.95 3295.98 3914.92Z" fill="#E9E5E9"/>
<path d="M3525.13 3831.17C3520.21 3840.72 3504.71 3842.32 3495.39 3842.69C3488.46 3842.97 3489.43 3853.28 3496.33 3853C3509.87 3852.47 3528.09 3848.77 3534.83 3835.67C3537.86 3829.66 3528.17 3825.18 3525.13 3831.17Z" fill="#E9E5E9"/>
<path d="M3546.62 3843.3C3543.46 3853.49 3528.45 3857.57 3519.3 3859.42C3512.53 3860.82 3515.31 3870.84 3522.03 3869.45C3535.28 3866.74 3552.59 3860.17 3556.96 3846.17C3558.96 3839.77 3548.62 3836.9 3546.62 3843.3Z" fill="#E9E5E9"/>
<path d="M3502.97 3813.46C3497.06 3822.18 3481.75 3821.94 3472.63 3821.23C3465.9 3820.7 3465.58 3830.85 3472.31 3831.4C3485.52 3832.4 3503.66 3830.92 3511.82 3818.93C3515.53 3813.44 3506.66 3808 3502.97 3813.46Z" fill="#E9E5E9"/>
<path d="M3952.46 2224.72C3952.46 2224.72 3847.88 2831.9 3819.36 2932.22C3790.86 3032.5 3550.66 3612.52 3527.84 3837.81L3314.69 3800.52C3314.69 3800.52 3390.77 3157.27 3551.13 2885.26C3551.13 2885.26 3533.9 2222.49 3594.18 2046.99L3952.46 2224.72Z" fill="#212121"/>
<path d="M3972.92 1561.48L3960.22 1374.42C3957.38 1331.75 3910.93 1300.08 3856.56 1303.64C3802.13 1307.23 3760.34 1344.71 3763.26 1387.41L3775.9 1574.47L3972.92 1561.48Z" fill="#83B432"/>
<path d="M4025.23 1598.36C4011.83 1505.12 3921.97 1298.27 3921.97 1298.27C3921.97 1298.27 3759.28 1299.09 3687.51 1239.59C3687.51 1239.59 3469.42 1465.58 3517.74 2344.3C3517.74 2344.3 3727.18 2421.95 4090.79 2335.52C4090.79 2335.52 4038.69 1691.6 4025.23 1598.36Z" fill="#A0D469"/>
<path d="M3830.93 1595.71L3812.01 1377.73C3807.74 1328.03 3757.49 1291.51 3699.83 1296.12C3642.16 1300.8 3598.91 1344.83 3603.21 1394.57L3622.1 1612.55L3830.93 1595.71Z" fill="#83B432"/>
<path d="M4512.38 2074.24C4504.84 2064.6 4430.22 2075.96 4407.22 2079.71L3846.35 1940.55L3821.34 1575.88L3630.02 1591.29C3630.02 1591.29 3674.9 2039.92 3701.97 2067.93C3729.02 2095.94 4373.73 2146.56 4373.73 2146.56C4419.56 2150.26 4415.65 2189.08 4415.65 2189.08C4415.65 2189.08 4472.53 2190.83 4497.28 2177.04C4522.02 2163.24 4521.29 2085.65 4512.38 2074.24Z" fill="#FFD3CC"/>
<path d="M2301.89 2525.05H3512.41L3620.4 1266.47L2229.72 1354.1L2301.89 2525.05Z" fill="#212121" stroke="white" stroke-width="5"/>
<path d="M3439.12 1275.39L3623.13 1263.8L3439.12 1275.39Z" fill="url(#paint0_linear)"/>
<path d="M3514.71 2527.55H2299.54L2292.09 2406.64C2429.85 2403.23 2567.63 2399.78 2705.91 2397.7C2760.25 2395.31 2814.58 2385.78 2863.96 2361.96C2910.88 2338.14 2957.79 2319.09 3004.71 2300.04C3409.84 2123.22 3474.81 1664.33 3439.12 1275.39L3623.13 1263.8L3616.32 1343.41L3607.58 1444.95L3530.1 2348.25L3514.71 2527.55Z" fill="#A0D469"/>
<path d="M1634.03 4456.04H2081.63V4321.67H1634.03V4456.04Z" fill="#fff"/>
<path d="M3219.95 4321.52H4157.75V4455.88H3219.95V4321.52Z" fill="#fff"/>
<path d="M4470.34 4321.52H5408.17V4455.88H4470.34V4321.52Z" fill="#fff"/>
<path d="M5720.77 4321.51H6658.61V4455.88H5720.77V4321.51Z" fill="#fff"/>
<path d="M480 4321.67H1417.82V4456.04H480V4321.67Z" fill="#fff"/>
<path d="M2459.74 4455.88H2907.32V4321.51H2459.74V4455.88Z" fill="#fff"/>
<path d="M2851.05 1963.99L2808.99 1916.55L2766.94 1963.99C2747.09 1986.39 2749.82 2020.06 2773.04 2039.21C2783.47 2047.81 2796.26 2052.01 2808.99 2052C2821.72 2052.01 2834.51 2047.81 2844.95 2039.21C2868.17 2020.06 2870.9 1986.39 2851.05 1963.99Z" fill="#90C33C"/>
<path d="M2766.94 1963.99L2808.99 1916.55L2752.98 1853.37C2720.25 1816.42 2705.28 1780.53 2710.8 1752.32C2720.07 1705.61 2761.35 1671.71 2808.99 1671.71V1565C2708.3 1565 2621.28 1635.4 2602.1 1732.38L2602.09 1732.42L2602.08 1732.46C2593.67 1775.34 2598.42 1843.16 2668.87 1922.7L2766.77 2033.13C2749.51 2013.51 2749.05 1984.17 2766.94 1963.99Z" fill="#90C33C"/>
<path d="M3015.91 1732.46L3015.9 1732.42L3015.89 1732.38C2996.7 1635.4 2909.69 1565 2808.99 1565V1671.71C2856.64 1671.71 2897.93 1705.61 2907.19 1752.32C2912.72 1780.53 2897.74 1816.42 2865.01 1853.37L2808.99 1916.56L2851.05 1963.99C2868.94 1984.17 2868.48 2013.52 2851.21 2033.14L2949.12 1922.7C3019.57 1843.16 3024.32 1775.34 3015.91 1732.46Z" fill="#90C33C"/>
<defs>
<linearGradient id="paint0_linear" x1="-1039.53" y1="94.0471" x2="13738.6" y2="94.0471" gradientUnits="userSpaceOnUse">
<stop stop-color="#02EEC8"/>
<stop offset="2.7e-07" stop-color="#02EEC8"/>
<stop offset="1" stop-color="#009A81"/>
</linearGradient>
</defs>
</svg>
