<svg width="552" height="227" viewBox="0 0 552 227" fill="none" xmlns="http://www.w3.org/2000/svg">
<path d="M276.976 75.856L264.112 130H240.112L233.584 99.472L226.672 130H202.672L189.904 75.856H211.024L215.536 108.784L222.544 75.856H245.296L252.688 109.168L257.296 75.856H276.976ZM292.271 71.536C288.559 71.536 285.583 70.544 283.343 68.56C281.103 66.576 279.983 64.08 279.983 61.072C279.983 58 281.103 55.472 283.343 53.488C285.583 51.44 288.559 50.416 292.271 50.416C295.919 50.416 298.863 51.44 301.103 53.488C303.343 55.472 304.463 58 304.463 61.072C304.463 64.08 303.343 66.576 301.103 68.56C298.863 70.544 295.919 71.536 292.271 71.536ZM302.831 75.856V130H281.519V75.856H302.831ZM333.768 58.96V130H312.456V58.96H333.768ZM364.706 83.248C366.05 80.752 367.97 78.8 370.466 77.392C373.026 75.92 376.066 75.184 379.586 75.184C383.81 75.184 387.618 76.304 391.01 78.544C394.402 80.72 397.058 83.92 398.978 88.144C400.962 92.304 401.954 97.232 401.954 102.928C401.954 108.624 400.962 113.584 398.978 117.808C397.058 121.968 394.402 125.168 391.01 127.408C387.618 129.584 383.81 130.672 379.586 130.672C376.066 130.672 373.026 129.968 370.466 128.56C367.97 127.088 366.05 125.104 364.706 122.608V130H343.394V58.96H364.706V83.248ZM380.354 102.928C380.354 100.048 379.618 97.808 378.146 96.208C376.674 94.608 374.786 93.808 372.482 93.808C370.178 93.808 368.29 94.608 366.818 96.208C365.346 97.808 364.61 100.048 364.61 102.928C364.61 105.808 365.346 108.048 366.818 109.648C368.29 111.248 370.178 112.048 372.482 112.048C374.786 112.048 376.674 111.248 378.146 109.648C379.618 108.048 380.354 105.808 380.354 102.928ZM429.956 83.248C431.3 80.752 433.22 78.8 435.716 77.392C438.276 75.92 441.316 75.184 444.836 75.184C449.06 75.184 452.868 76.304 456.26 78.544C459.652 80.72 462.308 83.92 464.228 88.144C466.212 92.304 467.204 97.232 467.204 102.928C467.204 108.624 466.212 113.584 464.228 117.808C462.308 121.968 459.652 125.168 456.26 127.408C452.868 129.584 449.06 130.672 444.836 130.672C441.316 130.672 438.276 129.968 435.716 128.56C433.22 127.088 431.3 125.104 429.956 122.608V130H408.644V58.96H429.956V83.248ZM445.604 102.928C445.604 100.048 444.868 97.808 443.396 96.208C441.924 94.608 440.036 93.808 437.732 93.808C435.428 93.808 433.54 94.608 432.068 96.208C430.596 97.808 429.86 100.048 429.86 102.928C429.86 105.808 430.596 108.048 432.068 109.648C433.54 111.248 435.428 112.048 437.732 112.048C440.036 112.048 441.924 111.248 443.396 109.648C444.868 108.048 445.604 105.808 445.604 102.928ZM535.046 75.856L500.39 155.92H477.062L490.694 127.312L468.134 75.856H491.846L502.022 103.312L511.526 75.856H535.046Z" fill="white"/>
<path d="M102 49C102 32.4315 115.431 19 132 19H178V158H102V49Z" fill="white"/>
<path d="M38 158L38 112C38 95.4315 51.4315 82 68 82L110 82L110 158L38 158Z" fill="white"/>
<circle cx="204.5" cy="184.5" r="26.5" fill="#90C33C"/>
</svg>
