<svg width="700" height="700" viewBox="0 0 700 700" fill="none" xmlns="http://www.w3.org/2000/svg">
<path d="M96 467.416C96 458.987 113.192 464.734 111.934 467.416C111.096 470.099 96 476.229 96 467.416Z" fill="#7A7711"/>
<path d="M450 262.027C450 266.412 444.366 271.595 440.342 271.993C436.319 272.392 431.49 254.851 435.514 251.661C439.538 248.472 450 257.641 450 261.628V262.027Z" fill="#7A7711"/>
<path d="M449.64 475.827C451.633 479.177 444.856 485.457 441.667 479.595C438.478 473.734 447.646 472.477 449.64 475.827Z" fill="#1E0D07"/>
<path d="M362.605 360.965C367.45 369.075 367.046 377.185 361.798 378.401C358.568 379.212 355.339 379.618 352.109 380.023C336.364 382.051 323.042 380.834 312.141 377.185C303.26 374.346 301.645 364.209 307.297 356.91L326.675 332.58C331.923 324.875 340.805 325.281 346.053 332.985L362.605 360.965Z" fill="#B81D07"/>
<path fill-rule="evenodd" clip-rule="evenodd" d="M358 353C356.667 352.5 355.333 351.5 354 351C354.889 350.5 355.333 350.5 356.222 350L358 353Z" fill="url(#paint0_linear)"/>
<path d="M328 333C330.739 329.143 333.87 327 337 327C333.87 327 330.348 329.143 328 333Z" fill="#A81B06"/>
<path fill-rule="evenodd" clip-rule="evenodd" d="M354.034 350.603C353.247 350.207 352.067 349.81 351.281 349.414C352.461 348.621 353.247 348.224 353.247 348.224C354.034 346.638 351.281 345.052 348.921 345.052C348.135 345.052 347.348 345.052 346.562 345.448C346.169 345.052 346.169 345.052 345.775 345.052C344.989 345.052 343.809 345.845 343.022 346.638C341.843 346.241 340.27 345.845 339.09 345.448C339.09 345.052 338.697 345.052 338.303 345.052H337.91C335.551 344.259 332.798 343.862 330.438 343.466C329.258 342.276 327.292 341.483 325.719 341.483C324.933 341.483 324.146 341.879 323.753 342.672C322.966 342.672 321.787 342.276 321 342.276L328.079 333.552C330.831 329.983 333.978 328 337.124 328C340.663 328 343.809 329.983 346.562 333.552L356 350.207C355.213 350.603 354.82 350.603 354.034 351V350.603Z" fill="url(#paint1_linear)"/>
<path d="M479.022 306L489.662 313.329C483.751 327.581 480.993 349.162 507 374C485.721 363.413 471.535 338.982 479.022 306Z" fill="#B26693"/>
<path d="M500 265V282.855C479.342 286.913 453.013 299.493 444.911 349C443.696 341.696 443.696 334.391 444.911 327.087C448.152 304.362 461.924 283.261 488.253 269.87C491.899 268.246 495.544 266.217 500 265Z" fill="#B26693"/>
<path d="M548.852 366.855C553.685 361.985 558.114 356.304 561.738 349L571 355.493C571 355.493 564.96 366.855 553.685 374.564C544.826 380.651 533.148 384.709 519.054 379.84C516.235 379.028 513.819 377.811 511 376.188C523.886 381.463 537.577 377.811 548.852 367.26V366.855Z" fill="#EAACCE"/>
<path d="M514 392.206V407.817C514 407.817 509.6 408.228 503.2 407.817C484.8 406.585 448.8 397.958 446 354C451.6 381.525 479.2 396.314 514 392.206Z" fill="#EAACCE"/>
<path d="M412.741 418.004C423.311 408.559 436.231 435.251 424.094 441C424.486 427.449 415.873 419.236 410 422.521C410.392 420.878 411.566 419.236 412.741 418.004Z" fill="black"/>
<path d="M409.758 422.716C415.687 419.464 424.382 427.594 423.987 441.008C413.71 445.886 406.596 431.658 409.758 422.716Z" fill="#351F18"/>
<path d="M523.097 441.522C524.301 443.808 524.301 446.095 523.097 448C518.281 440.759 485.375 437.711 480.961 448C479.757 446.476 479.757 444.951 480.559 443.046C484.974 430.47 519.485 434.662 523.097 441.903V441.522Z" fill="#7A7711"/>
<path d="M523 448.077C520.6 452.149 514.2 455 506.6 455C497.4 455 484.6 453.371 481 448.077C485.4 437.082 518.2 440.34 523 448.077Z" fill="#FFC55F"/>
<path d="M542.714 444.396C547.153 454.69 538.678 471.716 538.678 471.716C538.678 471.716 535.853 474.488 528.992 477.259C523.342 479.635 514.464 481.615 501.953 480.823C475.318 479.635 465.632 466.965 465.632 466.965C463.211 461.421 462.404 453.503 462 449.147C464.018 466.965 491.864 471.32 511.235 471.32C530.203 471.32 544.731 459.046 543.117 444L542.714 444.396Z" fill="#7A7711"/>
<path d="M522.801 448.253C523.994 446.241 523.994 443.826 522.801 441.411C518.827 434.166 485.049 429.336 480.678 442.618C479.883 444.631 480.28 446.643 481.075 447.851C484.651 453.083 497.368 454.693 506.508 454.693C514.059 454.693 520.417 451.876 522.801 447.851V448.253ZM541.876 444.228C543.466 459.523 529.557 472 510.482 472C491.805 472 464.384 467.17 462 449.461C462 447.851 462 446.643 462 446.241C462 444.631 462.397 443.021 462.795 441.411C467.166 424.506 485.049 419.274 502.534 420.079C519.622 421.286 536.71 428.531 540.287 437.788C541.082 439.801 541.479 442.216 541.876 444.228Z" fill="#99991F"/>
<path fill-rule="evenodd" clip-rule="evenodd" d="M512.251 472C511.849 470.8 511.045 469.6 510.241 468.4C507.829 464.8 504.211 462.8 500.593 460.8C497.377 459.2 494.161 458.4 490.543 458C490.141 458 489.739 458 488.935 458C486.925 458 484.915 458.4 483.307 458.8C478.08 457.2 472.452 456.8 468.03 456.8C466.824 456.8 465.618 456.8 464.814 456.8C463.206 454.8 462.402 452 462 449.2C462 447.6 462 446.4 462 446C462 444.4 462.402 442.8 462.804 441.2C463.206 440 463.608 438.8 464.01 437.6C469.236 424.8 483.307 420 498.181 420C499.387 420 500.593 420 501.397 420C502.603 422.8 505.015 424 507.829 425.2C508.633 425.6 509.437 425.6 510.241 425.6C511.045 425.6 511.447 425.6 512.251 425.2C513.457 431.6 517.075 436.8 525.116 437.6C527.126 437.6 528.734 438 530.744 438C533.96 438 537.578 437.6 540.794 437.6C541.598 439.6 542 441.2 542 442.8V443.2C542 444 542 444.8 542 445.6C542 459.2 529.136 470 511.849 470.8L512.251 472ZM479.688 445.2C479.688 446.4 480.09 447.2 480.492 448.4C484.111 453.6 496.975 455.2 506.221 455.2C513.859 455.2 520.291 452.4 522.704 448.4C523.106 447.6 523.508 446.4 523.508 445.2C523.508 444 523.106 442.8 522.704 441.6C520.291 437.6 509.839 434.8 499.387 434.8C490.543 434.8 482.503 437.2 480.09 443.2C479.688 444 479.688 444.8 479.688 445.6V445.2ZM506.623 472C505.819 472 505.015 472 504.211 472C503.407 470 502.201 468 500.191 466.4C502.603 468 505.015 469.6 506.623 472ZM529.136 433.2C521.899 433.2 519.085 429.6 517.879 424.4C523.106 428.8 528.332 431.6 533.156 433.2C532.754 433.2 532.352 433.2 531.95 433.2C531.146 433.2 530.342 433.2 529.538 433.2H529.136Z" fill="url(#paint2_linear)"/>
<path d="M423.852 441.177C436.312 435.477 423.048 409.014 412.195 418.378C410.99 419.599 409.784 421.228 409.382 422.856C406.568 431.813 413.401 446.062 423.852 441.177ZM423.852 402.093C445.557 411.05 450.38 441.584 439.125 453.39C408.98 485.553 372.805 476.596 366.374 467.64C338.64 427.742 396.118 390.693 423.45 402.093H423.852Z" fill="#1E0D07"/>
<path fill-rule="evenodd" clip-rule="evenodd" d="M421.565 467.596C416.799 461.946 410.444 458.717 401.706 458.717C401.308 458.717 400.911 458.717 400.514 458.717C400.514 458.717 400.514 458.717 400.117 458.717C398.528 458.717 397.336 457.91 396.542 457.102L396.145 456.699C394.556 455.488 391.776 455.084 388.995 455.084C387.804 455.084 386.215 455.084 384.626 455.488C381.846 452.259 379.463 449.03 376.285 446.205C387.407 444.59 404.883 429.253 398.528 417.952C396.542 414.319 393.364 412.705 390.187 412.705C379.86 412.705 365.958 428.042 368.341 440.958C366.355 440.151 364.369 439.747 362.383 439.747C361.986 439.747 361.192 439.747 360.794 439.747C363.972 424.006 377.874 411.09 392.967 405.036C396.939 404.633 400.117 403.422 402.103 402.211C402.5 402.211 402.5 402.211 402.897 402.211C403.294 402.211 404.089 401.807 404.486 401.807C407.266 401.404 410.047 401 412.827 401C416.799 401 420.771 401.807 423.949 403.018C435.07 407.458 441.822 417.952 443.808 428.446C444.206 429.657 444.206 430.867 444.603 432.482C444.603 434.096 445 435.307 445 436.518C445 443.38 443.014 449.434 439.439 453.873C433.879 459.928 427.921 464.771 421.963 468L421.565 467.596ZM408.855 428.042C408.855 434.904 413.224 442.572 419.579 442.572C420.771 442.572 422.36 442.169 423.949 441.765C427.523 440.151 429.112 436.922 429.112 432.886C429.112 425.62 423.551 417.145 417.593 417.145C416.005 417.145 414.416 417.548 412.827 419.163C411.636 420.373 410.444 421.988 410.047 423.602C410.047 423.602 410.047 423.602 410.047 424.006C409.65 425.217 409.65 426.428 409.65 427.639L408.855 428.042ZM365.164 464.367L364.766 463.56L365.561 463.964L365.164 464.367ZM370.327 460.331C367.547 458.717 365.164 457.506 362.78 455.488C361.986 454.681 360.794 452.663 360.397 450.645C360.397 449.837 360 448.627 360 447.819C360.397 447.012 360.794 446.205 362.383 446.205H362.78C369.533 447.012 374.696 451.855 379.065 457.102C375.888 457.91 372.71 459.12 370.327 460.735V460.331Z" fill="url(#paint3_linear)"/>
<path d="M332 270V283.076C332 290.432 327.245 294.518 321.302 292.475C316.151 290.432 311.792 289.206 311 288.797C318.528 282.259 324.472 276.538 332 270Z" fill="#B81D07"/>
<path d="M324.075 292.596C323.283 292.596 322.094 292.596 321.302 292.193C316.151 290.175 311.792 288.965 311 288.561C318.528 282.105 324.472 276.456 332 270V282.912C332 288.965 328.83 293 324.472 293L324.075 292.596Z" fill="#E7350D"/>
<path d="M393.046 265.998C399.027 272.863 395.438 281.747 386.666 284.17L360.747 291.439C351.975 293.862 344.797 288.208 344.399 278.921L344 259.134C350.779 253.48 357.159 249.038 363.937 245C371.513 249.846 385.071 256.711 393.046 265.998Z" fill="#B81D07"/>
<path d="M357 292C358.147 292 359.676 292 360.824 291.625L370 289L360.824 291.625C359.294 292 358.147 292 357 292Z" fill="#A81B06"/>
<path d="M412.68 309.954C414.276 326.346 409.885 342.738 399.906 355.531C394.317 362.727 383.539 360.728 378.349 353.132L359.588 325.546C354.398 317.95 357.192 309.555 366.374 307.156L393.519 298.76C402.301 295.962 411.881 301.159 412.68 309.954Z" fill="#B81D07"/>
<path d="M312.283 304.786C320.808 307.179 322.432 315.155 316.343 321.935L294.825 345.864C288.735 352.644 278.18 353.043 273.308 345.067C266.406 333.9 267.218 325.923 266 321.137C276.15 314.756 286.705 307.976 296.855 300L311.877 304.786H312.283Z" fill="#B81D07"/>
<path d="M287 307.6C290.6 305.2 293.8 302.4 297 300C293.8 302.8 290.2 305.2 287 308V307.6Z" fill="#A81B06"/>
<path d="M361.767 378.527C366.984 377.314 367.385 369.23 362.569 361.145L346.116 333.252C340.899 325.571 332.471 325.167 326.853 332.848L307.591 357.102C301.972 364.379 303.578 374.485 312.406 377.314C323.241 380.953 336.485 382.165 352.135 380.144C355.346 379.74 358.556 379.336 361.767 378.527ZM399.088 355.485C409.522 342.55 413.535 325.976 411.93 309.402C411.127 300.104 401.095 295.253 392.667 298.083L365.379 306.572C356.55 309.402 353.741 317.487 358.556 325.167L377.418 353.06C382.635 360.74 393.069 362.762 399.088 355.485ZM310.4 288.381C311.202 288.785 315.617 290.402 320.834 292.019C326.853 294.041 331.669 289.998 331.669 282.722V269.786C331.669 269.786 332.471 252.808 344.109 259.276L344.511 279.084C344.511 288.381 352.135 294.041 360.964 291.615L387.049 284.339C395.878 281.913 399.489 273.02 393.47 266.148C385.444 256.85 372.201 250.382 364.175 245.127C363.372 244.723 362.971 244.319 362.569 243.915C359.359 241.489 373.003 233 373.003 233C375.01 234.213 377.418 235.021 379.424 236.234C418.752 258.063 434.403 293.636 430.39 325.976C426.377 357.102 404.305 385.399 367.786 395.101C298.361 412.888 260.638 365.996 250.605 331.635C250.204 329.614 249.401 327.593 249 325.976C249 325.976 259.835 314.657 264.25 316.274C266.256 317.082 267.059 318.699 267.46 321.125C268.263 325.976 267.46 334.06 274.684 345.379C279.499 353.06 289.933 353.06 295.953 346.188L317.222 321.933C323.241 315.061 321.636 306.976 313.209 304.551L298.361 299.7C298.361 299.7 294.347 285.147 311.604 288.381H310.4Z" fill="#FF5A27"/>
<path fill-rule="evenodd" clip-rule="evenodd" d="M397.696 381C392.078 375.323 383.65 369.647 373.616 365.186C371.208 360.726 365.59 356.671 357.965 352.616L356.359 350.184L346.727 333.153C344.319 329.099 340.707 327.477 337.095 327.477C333.885 327.477 330.273 329.504 327.865 333.153L320.641 342.074C316.226 341.668 311.812 341.263 307.798 341.263C304.989 341.263 302.18 341.263 299.37 341.668L316.226 321.8C318.634 318.962 319.838 316.123 319.838 313.285C319.838 309.23 317.029 305.986 312.213 304.364L297.364 299.499C297.364 299.499 296.962 297.877 296.962 296.255C296.962 292.605 298.166 287.74 305.792 287.74C306.996 287.74 308.601 287.74 310.206 288.145C311.009 288.551 315.424 290.173 320.641 291.795C321.443 292.2 322.647 292.2 323.45 292.2C327.865 292.2 331.075 288.145 331.075 282.063V269.088C331.075 269.088 331.477 256.923 338.701 256.923C339.905 256.923 341.51 257.329 343.517 258.545L343.918 278.414C343.918 286.118 349.135 291.389 355.958 291.389C357.162 291.389 358.767 291.389 359.971 290.984L369.603 288.145C371.61 292.605 374.82 297.066 378.834 301.526L364.787 305.986C358.767 307.608 355.557 312.068 355.557 316.934C355.557 319.367 356.359 322.205 357.965 324.638L376.827 352.616C379.636 357.077 384.452 359.51 389.268 359.51C392.88 359.51 396.091 357.888 398.499 355.049C406.124 345.723 410.137 334.37 411.341 322.611C415.355 323.827 419.368 324.638 422.98 324.638C425.388 324.638 427.395 324.233 429 323.827C429 324.638 429 325.044 429 325.855C429 326.26 429 326.26 429 326.666V327.071C425.789 347.345 414.953 365.997 397.295 378.973L397.696 381ZM258.836 352.211C256.027 347.345 253.619 342.074 251.612 337.208C250.809 335.181 250.007 333.153 249.605 331.126C249.204 329.099 248.401 327.071 248 325.449C248 325.449 257.632 315.312 262.047 315.312C262.448 315.312 262.849 315.312 263.251 315.312C265.257 316.123 266.06 317.745 266.461 320.178C267.264 325.044 266.461 333.153 273.685 344.507C274.086 344.912 274.488 345.318 274.488 345.723C268.468 347.345 262.849 349.373 258.435 351.4L258.836 352.211ZM373.616 250.436C370.004 248.408 366.794 246.381 363.984 244.759C363.182 244.353 362.78 243.948 362.379 243.542C361.978 243.137 361.978 243.137 361.978 242.732C361.978 239.488 372.814 233 372.814 233C374.82 233.811 376.426 235.027 378.432 235.838C376.426 239.893 374.82 244.759 374.018 250.841L373.616 250.436Z" fill="url(#paint4_linear)"/>
<path d="M638.353 395.358C645.18 406.697 650 422.894 650 440.306C639.156 410.746 582.125 412.366 577.305 448C574.896 408.721 574.896 403.052 554.814 375.921C554.413 375.111 554.011 374.707 553.609 374.302C564.855 366.608 570.879 355.27 570.879 355.27L561.642 348.791C558.027 356.079 553.609 361.749 548.79 366.608C534.331 343.526 519.873 308.702 499.791 283.191V265.374C495.775 266.994 491.759 268.613 488.144 270.233C486.538 268.613 484.931 267.398 483.325 265.779C450.793 238.648 421.876 220.831 400.589 217.186C400.589 217.186 387.737 175.073 435.129 173.048C482.521 171.024 576.502 232.979 599.797 290.075C623.091 347.171 625.099 372.682 638.754 394.953L638.353 395.358Z" fill="#EBAE4E"/>
<path fill-rule="evenodd" clip-rule="evenodd" d="M650 441.187C649.598 439.968 648.794 438.749 648.392 437.53C642.363 426.153 628.698 420.464 614.63 420.464C612.219 420.464 609.405 420.464 606.994 420.87C599.357 389.988 588.103 359.512 578.055 332.287C566.801 304.249 533.441 287.183 516.559 264.427C489.63 219.323 441.399 210.384 400 193.724C402.01 187.222 406.431 180.721 415.675 176.657C420.498 174.625 426.125 173.406 433.762 173C433.762 173 433.762 173 434.164 173C434.968 173 435.37 173 436.174 173C436.576 173 436.576 173 436.977 173C437.379 173 437.379 173 437.781 173C450.643 173.406 465.916 177.876 482.395 185.19C528.215 205.508 580.868 248.58 598.151 289.621V290.027C598.151 290.027 598.151 290.027 598.151 290.434C598.151 290.434 598.151 290.434 598.151 290.84C598.151 290.84 598.151 290.84 598.151 291.246C598.151 291.246 598.151 291.246 598.151 291.653C621.463 348.947 623.473 374.547 637.138 396.896C643.971 407.867 648.794 423.715 648.794 440.375C648.794 440.781 648.794 441.594 648.794 442L650 441.187Z" fill="url(#paint5_linear)"/>
<path fill-rule="evenodd" clip-rule="evenodd" d="M578 446C580.781 431.317 593.493 422.984 607 421C593.493 422.984 581.178 431.317 578 446Z" fill="url(#paint6_linear)"/>
<path fill-rule="evenodd" clip-rule="evenodd" d="M577.798 448C575.382 408.705 575.382 403.033 555.247 375.892C554.844 375.081 554.441 374.676 554.039 374.271C565.314 366.574 571.355 355.231 571.355 355.231L562.092 348.75C558.468 356.041 554.039 361.713 549.206 366.574C534.709 343.483 520.212 308.644 500.077 283.123V265.298C496.05 266.919 492.023 268.539 488.399 270.159C486.788 268.539 485.177 267.324 483.566 265.703C450.948 238.561 421.954 220.737 400.611 217.091C400.611 217.091 396.987 205.343 400.611 194C441.686 210.204 490.412 219.116 517.393 264.488C534.306 287.174 567.73 303.783 579.006 332.14C589.476 359.282 600.751 389.665 608 420.453C593.906 422.478 581.422 430.986 578.603 445.974C578.603 446.38 578.603 446.785 578.603 447.19L577.798 448Z" fill="url(#paint7_linear)"/>
<path d="M275.208 504.068C287.266 504.068 298.921 503.663 310.577 503.259C313.39 503.259 316.204 502.854 319.017 502.854C324.644 502.45 330.673 502.045 336.702 502.045C383.324 498.808 416.683 491.93 462.501 499.617C507.918 506.9 528.416 496.785 544.492 481.006C560.167 465.227 579.861 466.036 579.861 466.036C577.851 459.563 577.449 453.494 578.253 448.234C583.076 412.63 639.746 411.416 651 440.547C650.598 457.944 644.971 476.556 631.306 491.93C603.574 522.679 592.32 518.229 577.449 519.038C562.578 519.847 454.463 521.87 350.769 523.893C247.074 525.916 181.16 524.702 121.676 523.893C62.1929 523.084 51.743 514.587 55.7622 506.091C73.8484 511.351 108.011 506.091 152.624 504.068C165.083 503.259 177.945 503.259 191.61 503.259C225.773 503.663 251.897 504.472 276.414 504.068H275.208Z" fill="#D28427"/>
<path d="M219.808 453.324C234.212 453.728 245.416 446.049 240.614 435.946C235.813 426.247 198.602 427.46 196.201 439.583C194.2 450.495 205.404 452.515 219.808 452.92V453.324ZM263.421 475.146C272.223 465.851 262.22 453.728 253.818 453.324C245.416 452.92 226.61 463.023 230.211 473.126C234.212 484.037 254.618 484.845 263.421 475.55V475.146ZM301.032 453.324C306.233 449.282 296.23 427.864 287.828 435.946C279.426 444.029 295.83 457.365 301.032 453.324ZM246.216 403.212C314.236 411.295 323.438 465.043 321.838 492.928V493.332C319.037 493.332 315.036 493.332 310.635 493.736C312.235 473.126 272.223 484.845 274.624 496.161C269.022 496.565 263.421 496.969 258.219 496.969C239.814 497.373 221.408 493.736 207.404 491.311C208.605 487.27 209.805 482.016 211.406 476.359C215.007 463.831 194.2 455.748 182.997 463.831C174.995 469.489 164.192 480.4 162.191 490.503C155.789 490.503 150.188 490.503 146.186 489.291C143.786 458.981 164.592 416.953 207.804 405.233C219.008 402 231.812 401.192 245.816 402.808L246.216 403.212Z" fill="#C14C2D"/>
<path fill-rule="evenodd" clip-rule="evenodd" d="M254.848 497.186C239.212 497.186 223.175 493.932 210.346 491.898H209.945C209.945 491.898 209.945 491.898 209.544 491.898C209.143 491.898 208.742 491.898 208.742 491.898C208.742 491.898 208.742 491.898 208.341 491.898H207.94C207.539 491.898 207.539 491.898 207.138 491.898C208.341 487.831 209.544 482.542 211.147 476.847C212.35 472.373 210.346 468.712 206.737 465.864C207.138 465.458 207.539 465.051 207.94 464.644C214.355 464.644 221.972 463.424 229.59 460.983C233.198 459.763 236.806 458.542 240.014 456.915C240.415 456.915 240.816 457.322 241.217 457.322C234.802 460.576 228.788 465.864 228.788 471.153C228.788 471.966 228.788 472.78 229.189 473.593C231.594 479.695 238.41 482.542 245.627 482.542C252.041 482.542 258.456 480.508 262.465 476.034C264.871 473.593 265.673 470.746 265.673 467.898C265.673 465.458 264.871 463.424 263.668 461.39C264.47 461.39 265.673 461.39 266.475 461.39C272.088 461.39 277.3 460.983 282.111 459.763C284.516 462.203 286.922 465.051 289.728 467.492C300.553 477.254 312.18 482.949 321 483.763C321 484.983 321 485.797 321 487.017C321 487.831 321 488.644 321 489.458C321 490.678 321 492.305 321 493.525V493.932V494.339C320.198 494.339 319.396 494.339 318.194 494.339C316.189 494.339 314.184 494.339 311.779 494.746C310.977 494.746 310.576 494.746 309.774 494.746C309.774 494.339 309.774 493.932 309.774 493.525C309.774 486.203 304.161 483.356 297.346 483.356C286.922 483.356 273.691 489.458 273.691 495.966C273.691 496.373 273.691 496.78 273.691 497.186C268.078 497.593 262.465 498 257.253 498C256.051 498 254.848 498 253.645 498L254.848 497.186ZM158.627 490.678C153.816 490.678 149.806 490.271 147 489.458C147 487.831 147 486.203 147 484.983C148.203 484.576 149.005 484.576 149.806 484.169C152.212 484.576 155.018 484.983 157.825 484.983C160.23 484.983 162.636 484.983 165.041 484.576C163.839 486.61 163.037 488.644 162.636 491.085C161.433 491.085 159.829 491.085 158.627 491.085V490.678ZM296.544 425.593C292.535 423.966 288.525 422.746 285.318 422.339C282.111 419.492 279.705 415.424 279.304 411.356C286.521 415.017 292.935 419.085 298.147 423.966L297.346 424.78L296.544 425.593ZM201.124 418.678C198.318 418.678 195.912 418.271 193.908 416.644C192.304 415.831 190.3 415.017 189.097 413.39C195.111 410.136 201.525 406.881 208.742 405.254C215.157 403.627 222.373 402.407 229.59 402C228.387 405.661 225.982 408.102 222.774 409.729C222.373 410.542 221.972 411.763 220.77 412.169C215.959 415.424 207.94 418.678 201.124 418.678Z" fill="url(#paint8_linear)"/>
<path d="M275.103 496C272.713 485.584 312.547 474.011 310.953 493.685C301.393 494.071 288.647 495.228 275.103 496Z" fill="#EFC89B"/>
<path d="M400.668 333.137C398.698 339.262 392 328.324 392 328.324C392 328.324 403.032 326.136 400.668 333.137Z" fill="#E6A015"/>
<path d="M281.581 323.095C278.156 317.926 291 319.119 291 319.119C291 319.119 285.434 329.058 281.581 323.095Z" fill="#E6A015"/>
<path d="M403.84 305.641C405.48 312.027 394 307.344 394 307.344C394 307.344 402.2 298.829 403.84 305.641Z" fill="#E6A015"/>
<path d="M375.825 259.041C381.865 259.788 373.409 268 373.409 268C373.409 268 368.98 258.294 375.825 259.041Z" fill="#E6A015"/>
<path d="M310.6 494L310.2 503.231C298.6 503.615 287 504 275 504V497.077V496.308C288.2 495.538 301 494.769 311 494H310.6Z" fill="#E2AE7A"/>
<path d="M374 332C374 332 388.142 337.257 382.791 342.139C377.058 346.645 374 332 374 332Z" fill="#E6A015"/>
<path d="M377 277.926C377 277.926 386.438 265.23 389.584 271.975C392.73 279.116 377 277.926 377 277.926Z" fill="#E6A015"/>
<path d="M361.514 265C361.514 265 358.827 248.763 365.738 251.261C372.65 253.759 361.514 265 361.514 265Z" fill="#E6A015"/>
<path d="M182.726 464.274C194.105 456.119 215.238 464.274 211.58 476.914C209.955 482.622 208.735 487.515 207.516 492C202.233 491.185 197.763 490.369 194.105 490.369C185.571 490.369 172.973 491.185 162 491.592C164.032 480.991 175.411 469.982 183.133 464.681L182.726 464.274Z" fill="#EFC89B"/>
<path d="M301 325C301 325 293.431 339.938 288.805 333.299C284.179 326.66 301 325 301 325Z" fill="#E6A015"/>
<path fill-rule="evenodd" clip-rule="evenodd" d="M400.812 308.6C399.541 308.6 398.271 308.2 397 308.2C399.541 307.8 401.659 306.6 403.354 305C403.354 305.4 403.777 305.4 403.777 305.8C404.624 308.2 402.93 309 400.812 309V308.6Z" fill="url(#paint9_radial)"/>
<path fill-rule="evenodd" clip-rule="evenodd" d="M378.786 236.6C378.393 236.6 378.393 236.2 378 236.2C380.357 231.8 383.5 229.4 387.036 229C387.429 229 387.821 229 388.214 229C388.607 229 388.607 229 389 229C388.214 229.8 387.429 230.6 386.25 231.4C386.25 231.4 386.25 231.4 385.857 231.4C384.679 231.4 383.893 231.8 383.5 233.4C381.929 234.6 380.357 235.8 378.786 237V236.6Z" fill="url(#paint10_radial)"/>
<path fill-rule="evenodd" clip-rule="evenodd" d="M373.399 268C373 265 373 262.375 373 259.375C373.399 259 374.198 259 374.997 259C374.997 259 375.396 259 375.795 259C380.188 259.375 376.993 263.875 374.997 266.5C374.198 267.25 373.799 268 373.799 268H373.399Z" fill="url(#paint11_radial)"/>
<path fill-rule="evenodd" clip-rule="evenodd" d="M164 484C167.651 477.389 174.142 470.778 179.821 466.5C180.632 466.5 181.849 466.5 182.66 466.5C189.151 466.5 195.236 465.333 199.698 463C201.321 463.389 202.943 463.389 204.566 463.389C205.377 463.778 206.189 464.167 207 464.944C201.321 471.167 191.179 477 178.604 480.889C173.736 482.444 168.462 483.222 164 484Z" fill="url(#paint12_radial)"/>
<path d="M385 315.476C385 315.476 399.392 309.459 398.992 316.184C398.592 322.909 385 315.476 385 315.476Z" fill="#E6A015"/>
<path d="M275 496.8V504C250.888 504 224.364 503.6 190.206 503.2C176.542 503.2 163.28 503.2 151.224 504C149.617 498 146 490 146 490C149.617 491.2 155.243 491.2 162.075 491.2C162.075 491.2 181.766 504 207.084 491.6C221.15 494 240.037 497.6 258.121 497.2C263.748 497.2 269.374 496.8 274.598 496.4V497.2L275 496.8Z" fill="#8E2510"/>
<path d="M253.655 453.42C262.265 453.83 272.516 466.101 263.495 475.509C254.475 484.916 233.564 484.098 229.464 473.054C225.774 463.237 245.045 452.602 253.655 453.011V453.42Z" fill="#EFC89B"/>
<path d="M538.638 471.955C538.638 471.955 535.827 474.786 529 477.616C525.386 478.829 520.969 480.043 515.347 480.851C515.748 480.043 515.748 478.829 515.347 477.616C513.74 473.977 512.937 471.55 510.929 467.911C508.52 464.272 504.906 462.25 501.292 460.228C498.079 458.61 494.866 457.801 491.252 457.397C488.843 456.993 486.433 457.801 484.024 458.206C476.394 456.184 467.961 455.375 463.142 456.588C462.741 453.757 462.339 450.927 462.339 448.5C462.339 447.692 461.937 446.479 462.339 445.265C462.339 443.648 462.741 442.03 463.142 440.413C467.158 423.833 484.827 418.171 502.095 418.98C503.3 421.811 505.709 423.024 508.52 424.237C510.126 425.046 511.331 425.046 512.536 424.237C513.74 430.707 517.355 435.964 525.386 436.773C530.607 437.178 535.827 436.773 541.047 436.773C541.851 438.795 542.252 440.817 542.654 442.839C547.071 453.353 538.638 470.742 538.638 470.742V471.955ZM507.717 478.829C506.512 479.234 504.906 479.234 503.3 479.234C502.898 479.234 502.898 479.234 502.496 479.234C505.709 474.381 504.103 469.933 499.685 466.293C504.103 468.72 507.717 472.764 508.922 477.212C509.323 478.425 509.725 479.234 509.725 479.234C509.725 479.234 508.922 478.829 507.717 478.829ZM441.859 479.638C438.646 473.977 447.882 472.764 449.89 475.999C451.898 479.234 445.071 485.3 441.859 479.638ZM421.78 467.102C416.961 461.441 409.733 457.801 400.497 458.206C398.891 458.206 397.284 457.397 396.481 456.588L396.079 456.184C393.67 454.162 389.253 454.162 384.434 454.566C380.82 450.118 377.206 446.074 372.788 442.435C369.977 440.413 364.355 438.391 359.938 438.795C365.158 412.106 402.906 393.099 423.788 401.592C445.473 410.488 450.292 440.817 439.048 452.544C433.426 458.61 427.402 463.463 421.379 466.698L421.78 467.102ZM335.442 467.102C333.434 456.184 346.686 460.228 346.284 463.867C345.883 467.102 336.647 473.168 335.442 467.102ZM335.442 417.767C338.655 414.936 340.662 423.428 338.253 425.046C335.844 427.068 329.418 423.024 335.442 417.767ZM295.686 426.259C292.474 426.664 289.261 426.259 286.048 423.833C282.434 421.002 279.222 416.554 278.82 411.701C286.048 415.341 292.474 419.385 297.694 424.237L296.891 425.046L296.088 426.259H295.686ZM222.198 410.084C221.797 410.892 221.395 412.106 220.19 412.51C213.364 416.958 200.112 422.215 193.285 416.958C191.679 416.15 189.671 415.341 188.466 413.723C194.49 410.084 200.915 407.253 208.143 405.231C214.568 403.614 221.797 402.4 229.025 401.996C227.82 405.635 225.411 408.062 222.198 409.679V410.084ZM155.939 468.315C155.136 471.55 152.726 472.764 150.317 473.977C149.514 473.572 148.309 473.572 147.104 473.168C147.907 467.911 149.514 462.25 151.521 456.993C153.529 458.206 155.537 459.419 157.545 460.632C156.742 463.463 155.939 466.293 155.537 468.315H155.939ZM96.5059 467.102C96.5059 458.206 112.97 464.272 111.766 467.102C110.963 469.933 96.5059 476.403 96.5059 467.102ZM369.977 459.823C367.166 458.206 364.757 456.993 362.347 454.971C361.544 454.162 360.339 452.14 359.938 450.118C359.938 449.309 359.536 448.096 359.536 447.287C359.938 446.074 360.339 445.265 362.347 445.67C369.174 446.479 374.395 451.331 378.812 456.588C375.599 457.397 372.387 458.61 369.977 460.228V459.823ZM364.757 463.867L364.355 463.058L365.158 463.463L364.757 463.867ZM414.953 305.752L414.15 304.539C412.142 301.304 411.339 296.855 410.536 292.812C410.536 292.003 410.135 291.194 409.733 290.385C413.749 291.598 417.363 292.003 420.174 292.003C419.371 297.26 419.371 301.708 420.174 305.752C418.568 305.752 416.56 305.752 414.953 305.348V305.752ZM404.914 298.069C402.505 294.833 400.497 290.79 398.891 287.15C400.497 287.959 402.103 288.363 403.709 289.172L404.111 290.385C404.914 293.62 405.717 297.26 406.922 300.495C406.119 299.686 405.717 298.877 405.316 298.069H404.914ZM391.662 254.799C390.859 253.586 390.056 252.373 389.654 251.968C388.048 249.542 387.245 246.711 387.245 243.476V242.263C390.056 243.881 392.465 245.903 394.875 247.925C393.67 250.351 392.465 252.777 391.662 255.204V254.799ZM435.434 252.373C439.449 249.138 449.89 258.439 449.89 262.483C449.89 266.931 444.268 272.188 440.253 272.592C436.237 272.997 431.418 255.204 435.434 251.968V252.373ZM514.142 391.886V407.253C514.142 407.253 509.725 407.657 503.3 407.253C484.827 406.04 448.686 397.548 445.875 354.278C451.497 381.372 479.205 395.93 514.142 391.886ZM478.804 306.156L489.646 313.435C483.622 327.589 480.811 349.021 507.315 373.689C485.63 363.175 471.174 338.912 478.804 306.156ZM532.614 432.729C531.41 432.729 530.205 432.729 529 432.729C521.37 432.729 518.559 429.09 517.355 423.833C522.575 428.281 527.795 431.112 532.614 432.729ZM577.189 448.096C574.78 408.871 574.78 403.209 554.701 376.115C554.299 375.306 553.898 374.902 553.496 374.498C544.662 380.563 533.016 384.607 518.961 379.755C516.15 378.946 513.74 377.733 510.929 376.115C523.78 381.372 537.433 377.733 548.677 367.219C534.221 344.169 519.764 309.391 499.685 283.915C479.205 287.959 453.103 300.495 445.071 349.83C443.867 342.551 443.867 335.272 445.071 327.993C448.284 305.348 461.937 284.319 488.04 270.975C486.433 269.357 484.827 268.144 483.221 266.526C450.693 239.432 421.78 221.639 400.497 218C400.497 218 395.276 224.47 386.442 231.345C385.237 231.345 384.032 231.749 384.032 233.367C382.426 234.58 380.82 235.793 379.213 237.006C380.418 237.815 381.623 238.219 382.426 239.028C382.024 239.837 382.024 240.646 382.024 241.859C381.623 244.69 382.024 247.52 382.828 250.351C384.032 254.395 386.442 258.034 389.654 260.461C385.639 270.975 385.237 278.254 392.867 283.511C393.67 289.981 397.284 295.238 400.497 300.899C403.709 306.156 407.324 308.987 411.741 310.605C414.552 313.435 418.568 314.244 422.583 314.648C424.591 319.905 427.001 323.141 427.001 323.141C428.205 323.545 429.008 323.545 430.213 323.949C430.213 324.758 430.213 325.567 429.812 326.78C426.599 353.47 409.733 378.137 382.024 390.673C380.82 387.842 377.607 386.225 372.387 386.225C369.576 386.225 366.765 386.629 363.552 387.034C362.749 385.821 361.946 384.607 361.143 383.394C357.93 379.755 353.513 376.52 348.694 374.498C347.088 373.689 345.481 373.285 343.875 372.88L343.473 372.071C343.072 371.667 342.67 370.454 342.269 369.645C340.662 368.027 338.655 366.41 337.048 364.792C334.237 362.77 331.426 361.153 327.812 359.94C325.001 359.131 320.985 358.322 318.174 359.94C316.97 360.749 315.363 361.153 313.757 361.962C298.899 355.896 278.017 359.131 270.387 369.645C259.946 357.918 253.119 344.169 249.505 332.441C239.064 338.507 229.427 344.977 220.592 351.852C228.222 352.256 233.844 357.513 233.844 357.513C222.6 367.623 202.521 391.886 202.521 391.886C202.521 391.886 193.285 392.291 189.671 382.181C169.592 399.165 144.293 415.341 110.159 439.2C64.7817 471.146 36.6715 484.895 54.3408 506.732C72.4115 511.989 106.545 506.732 151.12 504.71C149.514 498.644 145.899 490.557 145.899 490.557C145.899 488.939 145.899 487.322 145.899 486.108C154.332 484.086 156.34 480.851 155.136 478.425C155.939 478.021 156.742 477.616 156.742 477.212C159.954 474.381 161.159 471.146 161.962 467.102C162.364 465.889 162.364 465.08 162.765 463.867C178.828 469.529 199.309 468.72 206.939 458.206C211.356 451.736 221.797 449.714 231.435 444.052C241.072 446.883 250.71 448.905 261.954 448.5C269.986 448.096 283.237 445.67 290.466 439.2C304.922 456.993 310.946 474.786 318.174 458.61V458.206C322.592 471.55 323.395 484.491 322.592 494.601V495.005L319.379 504.71C325.001 504.306 331.025 503.901 337.048 503.901C383.631 500.666 416.961 493.792 462.741 501.475C508.118 508.754 528.599 498.644 544.662 482.873C560.323 467.102 580 467.911 580 467.911C577.992 461.441 577.591 455.375 578.394 450.118L577.189 448.096Z" fill="#FFCE78"/>
<path d="M152 504C151.6 502 150.8 500 150 498C150.8 500 151.6 502 152 504Z" fill="#B56136"/>
<path fill-rule="evenodd" clip-rule="evenodd" d="M579 465C577.624 460.769 577.165 456.923 577.165 453.462C577.165 452.308 577.165 451.154 577.165 450C576.707 454.615 577.165 459.615 579 465Z" fill="url(#paint13_linear)"/>
<path d="M193.741 490C197.357 490 202.179 490.799 207 491.598C181.286 503.981 162 491.198 162 491.198C172.446 491.198 185.304 490 193.741 490Z" fill="#E2AE7A"/>
<path fill-rule="evenodd" clip-rule="evenodd" d="M444.786 482C442.781 481.191 440.375 480.786 437.969 479.977C439.172 479.168 439.974 478.359 440.776 477.55C440.776 477.145 440.776 477.145 440.776 476.741C440.776 477.55 441.177 477.954 441.578 478.763C442.38 480.382 443.984 481.191 445.187 481.191C447.594 481.191 450 478.763 450 476.336C450 478.359 447.594 481.191 445.187 481.191V481.595L444.786 482ZM142 476.336C143.203 475.932 144.807 475.122 146.01 474.718C146.01 475.122 146.411 475.527 146.812 476.336C145.208 476.336 143.604 476.336 142 476.336ZM328.484 446.803C324.474 441.544 320.062 438.307 315.651 438.307H315.25C310.437 434.261 305.625 430.62 300.812 428.193C308.031 430.216 316.052 432.239 324.474 433.048C327.281 433.452 330.089 433.452 332.896 433.857C332.896 435.475 333.698 436.689 334.099 437.902C334.901 439.116 335.703 439.925 336.906 440.734C333.297 442.353 330.49 444.78 328.083 447.207L328.484 446.803ZM445.187 431.429C445.187 430.216 444.786 429.002 444.385 427.384C445.99 428.193 447.995 429.002 449.599 429.811C447.995 430.216 446.391 430.62 444.786 431.025L445.187 431.429ZM403.078 401.087C403.078 400.278 403.078 399.064 403.078 398.255C403.479 399.064 404.281 399.873 404.682 400.683C404.281 400.683 403.479 401.087 403.078 401.087ZM342.521 369.936C342.521 369.936 342.521 369.531 342.12 369.531C341.318 368.722 340.115 367.508 339.312 366.699C338.51 365.89 337.708 365.081 336.906 364.676H336.505L336.104 364.272C336.505 364.272 336.505 364.676 336.906 365.081C338.911 366.699 340.516 368.317 342.12 369.936L342.521 370.34V369.936ZM401.875 303.183C401.474 302.373 400.672 301.564 400.271 300.755C399.068 298.328 397.464 296.305 396.26 293.878C397.062 293.878 397.464 293.878 398.266 294.282C399.87 294.282 401.474 294.687 403.078 294.687C402.677 294.282 402.276 293.878 402.276 293.068C401.073 291.046 399.87 289.023 399.068 287C400.672 290.641 403.078 294.687 405.083 297.923C405.484 298.732 406.286 299.541 406.687 300.351C405.885 299.541 405.484 298.732 405.083 297.923C403.88 299.541 402.677 301.16 401.875 303.183Z" fill="url(#paint14_linear)"/>
<path fill-rule="evenodd" clip-rule="evenodd" d="M133 505C139.333 504.176 145.667 503.765 151.578 502.941C151.156 501.294 150.311 499.647 149.889 498C150.733 500.059 151.578 502.118 152 504.176C145.667 504.588 139.333 505 133 505Z" fill="url(#paint15_linear)"/>
<path fill-rule="evenodd" clip-rule="evenodd" d="M502.916 520.596C501.714 520.596 500.511 520.192 499.309 519.788C498.507 519.384 497.706 518.171 498.107 517.363C498.107 515.747 498.507 514.131 499.309 512.918C498.507 511.706 498.507 510.09 500.511 507.665C502.114 505.645 505.321 504.433 508.126 504.433C509.329 504.433 510.531 504.837 511.332 505.241C511.332 504.433 511.733 504.029 512.134 503.624C515.741 499.584 522.154 496.351 528.165 495.947C529.769 495.139 530.971 494.331 532.574 494.331C532.975 494.331 533.776 494.331 534.177 494.331C534.578 494.331 534.979 494.331 535.38 494.331C538.987 493.927 542.594 491.502 543.796 487.865C544.598 486.249 542.994 484.633 541.792 484.633C543.796 482.612 546.602 481.804 549.808 481.804C550.209 481.804 550.209 481.804 550.609 481.804C547.403 485.037 548.605 491.098 551.01 494.331C553.014 497.159 555.82 498.776 558.625 498.776C560.228 498.776 562.232 498.371 563.835 497.159L564.236 496.755C566.24 496.755 568.244 495.543 569.446 493.927L569.847 493.118H570.248C570.649 493.118 571.45 492.714 571.45 492.31H571.851H572.252C573.053 493.118 573.855 493.522 574.656 493.522C575.458 493.522 576.66 493.118 577.061 492.31C580.267 489.482 582.271 485.845 581.871 481.4C581.47 477.763 577.462 475.339 574.656 474.127C574.256 473.722 573.454 473.722 573.053 473.722C572.653 473.318 571.851 472.914 571.049 472.51C571.851 472.51 573.053 472.914 574.256 473.318C577.863 474.531 581.069 477.359 582.672 480.592C582.672 478.976 583.073 477.359 583.474 475.743L584.275 476.551C584.676 476.955 585.077 476.955 585.478 476.955C586.68 476.955 587.482 475.339 586.68 474.127C586.279 473.318 585.478 472.51 585.077 471.702C585.478 470.894 585.478 470.49 585.878 470.086C586.279 471.702 587.081 473.318 588.684 474.127C589.085 474.531 589.485 474.531 590.287 474.531C592.291 474.531 594.295 471.702 595.096 470.086C597.1 466.853 596.7 462.812 592.692 461.196C591.89 460.792 591.089 460.792 589.886 460.792C588.684 460.792 587.482 461.196 586.279 461.6C586.279 459.984 586.279 458.771 586.279 457.155C582.672 454.327 581.069 449.478 582.672 443.82C583.474 440.992 585.478 439.376 587.482 438.567C590.287 433.718 593.493 430.89 597.501 428.869C598.303 429.273 598.704 429.678 599.505 429.678L599.906 430.486C601.509 432.506 603.914 432.91 605.918 432.91C607.521 432.91 608.723 432.506 610.326 432.102C614.334 430.486 617.54 427.657 619.144 424.424L619.945 423.616C620.346 423.212 620.747 422.808 621.147 422C623.953 423.212 626.758 424.829 627.961 426.445C629.163 428.061 630.766 429.678 632.369 432.102C629.564 433.314 627.56 436.143 625.957 438.567C625.155 440.184 626.358 441.8 627.961 441.8C628.362 441.8 628.762 441.8 629.163 441.396C629.564 443.416 630.365 444.629 633.572 445.437C634.373 445.437 634.774 445.437 635.175 445.437C638.381 445.437 640.786 443.416 641.187 439.78C641.187 438.163 640.786 436.547 639.984 435.335C640.786 435.739 641.187 436.547 641.988 437.759C644.393 440.992 646.798 444.224 648 447.457C646.798 447.861 645.595 448.265 644.794 449.073C644.393 448.669 643.992 448.669 643.591 448.669C643.191 448.669 642.79 448.669 642.389 449.478C639.183 453.114 638.381 457.963 639.984 462.408C639.584 462.408 638.782 462.408 638.381 462.408C637.179 462.408 635.576 462.408 634.373 462.812C629.965 464.024 625.957 466.449 624.755 471.298C623.953 475.339 625.155 479.38 627.159 483.016C627.961 484.229 628.762 485.845 629.965 486.653C629.163 487.057 628.762 487.461 627.961 487.865C624.354 493.118 618.743 497.967 615.937 501.604C614.334 503.624 611.128 507.261 607.12 510.494C606.318 507.665 603.914 505.241 601.108 504.433C600.707 504.433 599.906 504.029 599.505 504.029C594.696 504.029 591.089 510.09 589.085 513.727L588.283 514.939L587.482 513.727C585.878 514.535 584.275 514.939 582.672 514.939C580.668 514.939 579.065 514.131 577.863 511.706C577.061 512.918 576.26 514.131 574.256 515.343C573.053 516.151 571.851 516.555 570.248 516.555C570.248 514.535 568.645 512.918 566.641 511.706C565.438 510.898 564.236 510.494 563.034 510.494C561.431 510.494 560.228 510.898 558.625 511.706C558.224 511.706 557.823 511.706 557.423 511.706C554.216 511.706 551.812 513.727 551.411 516.555C546.602 518.171 541.792 519.788 536.983 519.788C534.979 519.788 532.574 519.384 530.57 518.98C526.562 517.767 525.761 515.343 526.562 512.918C523.757 514.939 520.951 516.959 518.947 517.767C518.547 518.171 518.146 518.171 517.745 518.171C516.543 518.171 515.34 517.363 515.34 516.151C514.539 516.151 513.737 516.555 512.936 516.555C512.535 516.555 512.134 516.555 511.332 516.555C509.329 519.384 505.722 521 502.515 521L502.916 520.596ZM541.792 496.351C541.391 496.351 540.991 496.351 540.59 496.755L540.189 497.159C538.586 497.967 537.383 499.988 536.983 501.2C536.582 501.604 536.582 502.412 536.983 502.816C536.582 504.433 536.181 506.049 536.181 508.069C536.181 509.282 536.983 510.09 538.185 510.09C543.395 510.09 549.407 506.453 547.403 499.988C546.602 497.967 545.399 496.755 543.395 496.351C542.994 496.351 542.594 495.947 542.193 495.947L541.792 496.351ZM605.116 494.331C606.318 494.331 607.521 495.139 607.922 496.351C608.322 498.776 607.521 500.796 606.318 502.412C608.322 500.392 609.925 498.776 611.929 496.755C613.933 494.735 618.342 490.694 621.949 486.653C621.147 486.249 620.747 485.441 620.747 484.229C620.747 483.016 621.147 481.804 621.147 480.996C620.346 480.592 619.945 479.784 619.544 478.976L618.342 479.784C618.743 482.208 618.342 485.037 617.14 487.461C615.536 491.098 612.33 493.118 609.124 493.118C608.322 493.118 607.521 493.118 606.719 492.714C605.116 493.927 603.112 494.735 600.307 494.735C599.906 494.735 599.906 494.735 599.505 494.735C598.704 494.735 598.303 494.331 597.501 494.331C596.7 494.735 596.299 495.139 595.497 495.543C595.497 496.755 595.096 497.563 594.696 498.371C598.303 495.947 601.91 494.331 604.715 494.331H605.116ZM584.676 489.482C583.874 489.886 583.073 489.886 582.271 490.29L581.47 491.906C581.871 493.522 581.47 495.543 581.069 497.159H581.47C583.073 495.139 584.676 493.118 586.279 492.31L587.081 491.906C586.279 491.502 585.478 490.694 585.077 489.482H584.676ZM599.104 470.49C596.299 470.894 595.898 472.914 598.704 475.339C598.704 473.722 599.104 472.106 599.505 470.49L599.104 470.086V470.49ZM614.334 459.58C612.731 461.196 611.529 462.408 610.326 463.62C609.925 464.024 609.124 464.024 608.723 464.429C611.128 466.045 613.533 468.469 615.536 471.702L615.937 471.298C618.743 468.065 614.735 466.045 614.735 462.812C614.735 461.6 614.735 460.388 615.136 459.58H614.334ZM597.1 459.58C599.104 459.58 601.108 460.388 602.711 461.6C603.112 461.6 603.914 462.004 604.314 462.004C604.715 461.196 605.517 460.792 605.918 459.984C604.314 459.58 602.711 458.771 601.108 457.155C599.104 458.367 596.7 458.771 594.696 458.771C593.894 458.771 593.093 458.771 592.692 458.771C592.692 459.176 593.093 459.984 593.093 460.388C593.894 459.984 595.096 459.58 595.898 459.58C596.299 459.58 596.7 459.58 597.1 459.58ZM604.715 442.608C603.112 442.608 601.91 445.033 603.513 446.245C601.91 446.649 601.509 449.478 603.513 450.286C604.715 450.69 605.517 451.094 606.719 451.094C607.922 451.094 608.723 450.69 609.525 449.478C610.326 448.265 610.727 446.245 609.925 445.033C608.723 443.416 607.521 444.224 605.918 443.416C605.517 443.012 605.116 443.012 604.715 443.012V442.608Z" fill="url(#paint16_linear)"/>
<defs>
<linearGradient id="paint0_linear" x1="356.084" y1="352.845" x2="355.966" y2="349.776" gradientUnits="userSpaceOnUse">
<stop stop-color="#780B02"/>
<stop offset="1" stop-color="#B81D07"/>
</linearGradient>
<linearGradient id="paint1_linear" x1="338.822" y1="350.627" x2="337.951" y2="327.14" gradientUnits="userSpaceOnUse">
<stop stop-color="#D12508"/>
<stop offset="1" stop-color="#E7350D"/>
</linearGradient>
<linearGradient id="paint2_linear" x1="513.365" y1="473.58" x2="490.666" y2="418.452" gradientUnits="userSpaceOnUse">
<stop stop-color="#D2C13C"/>
<stop offset="0.0117647" stop-color="#D2C13C"/>
<stop offset="0.219608" stop-color="#BAB030"/>
<stop offset="0.470588" stop-color="#ABA629"/>
<stop offset="0.729412" stop-color="#9F9D23"/>
<stop offset="1" stop-color="#99991F"/>
</linearGradient>
<linearGradient id="paint3_linear" x1="419.262" y1="469.292" x2="384.959" y2="399.279" gradientUnits="userSpaceOnUse">
<stop stop-color="#9C6B27"/>
<stop offset="0.0117647" stop-color="#9C6B27"/>
<stop offset="0.219608" stop-color="#674319"/>
<stop offset="0.470588" stop-color="#472B12"/>
<stop offset="0.729412" stop-color="#2C170B"/>
<stop offset="1" stop-color="#1E0D07"/>
</linearGradient>
<linearGradient id="paint4_linear" x1="249.064" y1="232.092" x2="430.686" y2="380.018" gradientUnits="userSpaceOnUse">
<stop stop-color="#FF9650"/>
<stop offset="1" stop-color="#FF5A27"/>
</linearGradient>
<linearGradient id="paint5_linear" x1="654.948" y1="195.568" x2="393.247" y2="415.598" gradientUnits="userSpaceOnUse">
<stop stop-color="#BC6A27"/>
<stop offset="1" stop-color="#EBAE4E"/>
</linearGradient>
<linearGradient id="paint6_linear" x1="577.543" y1="446.234" x2="607.724" y2="421.658" gradientUnits="userSpaceOnUse">
<stop stop-color="#FFDE8C"/>
<stop offset="1"/>
</linearGradient>
<linearGradient id="paint7_linear" x1="391.884" y1="411.358" x2="613.325" y2="232.286" gradientUnits="userSpaceOnUse">
<stop stop-color="#FFF5AF"/>
<stop offset="1" stop-color="#EBAE4E"/>
</linearGradient>
<linearGradient id="paint8_linear" x1="234.754" y1="498.175" x2="233.833" y2="401.358" gradientUnits="userSpaceOnUse">
<stop stop-color="#ED6F36"/>
<stop offset="1" stop-color="#C14C2D"/>
</linearGradient>
<radialGradient id="paint9_radial" cx="0" cy="0" r="1" gradientUnits="userSpaceOnUse" gradientTransform="translate(402.811 302.756) scale(3.67377 3.46929)">
<stop stop-color="#8D3F03"/>
<stop offset="0.54902" stop-color="#A85D09"/>
<stop offset="1" stop-color="#B86E0C"/>
</radialGradient>
<radialGradient id="paint10_radial" cx="0" cy="0" r="1" gradientUnits="userSpaceOnUse" gradientTransform="translate(391.86 240.54) scale(5.11488 5.20788)">
<stop stop-color="#9C6527"/>
<stop offset="0.168627" stop-color="#BA9469"/>
<stop offset="0.34902" stop-color="#D0B699"/>
<stop offset="0.670588" stop-color="#EADED1"/>
<stop offset="1" stop-color="white"/>
</radialGradient>
<radialGradient id="paint11_radial" cx="0" cy="0" r="1" gradientUnits="userSpaceOnUse" gradientTransform="translate(383.295 268.011) scale(4.79813 4.50589)">
<stop stop-color="#8D3F03"/>
<stop offset="0.321569" stop-color="#A85D09"/>
<stop offset="0.658824" stop-color="#BC720D"/>
<stop offset="1" stop-color="#C9800F"/>
</radialGradient>
<radialGradient id="paint12_radial" cx="0" cy="0" r="1" gradientUnits="userSpaceOnUse" gradientTransform="translate(173.48 464.155) scale(21.5511 20.6601)">
<stop stop-color="#924F18"/>
<stop offset="0.180392" stop-color="#AE7440"/>
<stop offset="0.360784" stop-color="#C38F5D"/>
<stop offset="0.690196" stop-color="#DBAE7F"/>
<stop offset="1" stop-color="#EEC79A"/>
</radialGradient>
<linearGradient id="paint13_linear" x1="578.541" y1="464.931" x2="577.753" y2="449.89" gradientUnits="userSpaceOnUse">
<stop stop-color="#FFD261"/>
<stop offset="1" stop-color="#E1A64A"/>
</linearGradient>
<linearGradient id="paint14_linear" x1="236.718" y1="278.925" x2="356.712" y2="510.474" gradientUnits="userSpaceOnUse">
<stop stop-color="#F79B27"/>
<stop offset="0.188235" stop-color="#FAB24A"/>
<stop offset="0.411765" stop-color="#FCBE5E"/>
<stop offset="0.65098" stop-color="#FEC86E"/>
<stop offset="1" stop-color="#FFCE78"/>
</linearGradient>
<linearGradient id="paint15_linear" x1="140.119" y1="497.049" x2="144.521" y2="505.835" gradientUnits="userSpaceOnUse">
<stop stop-color="#F7A52E"/>
<stop offset="0.188235" stop-color="#FABD58"/>
<stop offset="0.411765" stop-color="#FCCA6F"/>
<stop offset="0.65098" stop-color="#FED482"/>
<stop offset="1" stop-color="#FFDB8E"/>
</linearGradient>
<linearGradient id="paint16_linear" x1="576.28" y1="520.879" x2="570.01" y2="421.336" gradientUnits="userSpaceOnUse">
<stop stop-color="#FFCA54"/>
<stop offset="1" stop-color="#DA973A"/>
</linearGradient>
</defs>
</svg>
