<svg width="700" height="700" viewBox="0 0 700 700" fill="none" xmlns="http://www.w3.org/2000/svg">
<path d="M399 35.9259L363.308 199.138L362.278 204H341L342.03 199.138L378.408 31.4115C378.408 31.4115 382.527 27.9389 390.077 29.328C396.941 30.717 398.657 35.9259 398.657 35.9259H399Z" fill="#FFC55F"/>
<path fill-rule="evenodd" clip-rule="evenodd" d="M362.278 204H354.041C359.876 178.703 366.053 149.594 372.574 118.406C379.095 85.8317 384.929 55.6832 389.734 29.3465H390.42C397.284 30.7327 399 35.9307 399 35.9307L363.308 198.802L362.278 203.653V204ZM386.988 29C381.84 29 378.751 31.4257 378.751 31.4257C378.751 31.4257 381.84 29 386.988 29ZM378.751 31.4257L343.746 191.525C343.059 195.683 342.373 199.842 341.343 204H341L342.03 199.149L378.408 31.7723L378.751 31.4257Z" fill="url(#paint0_linear)"/>
<path d="M364.473 199C410.418 199.357 446 201.5 446 204C446 206.857 403.509 209 351 209C298.491 209 256 206.857 256 204C256 201.143 294.691 199 343.4 199L342.364 204H363.782L364.818 199H364.473Z" fill="#EDEEEF"/>
<path d="M472.839 217.271C476.28 218.339 478 219.763 478 220.831C478 227.949 420.538 234 350 234C279.118 234 222 228.305 222 220.831C222 219.763 223.72 218.339 226.817 217.271C230.946 215.847 237.828 214.424 246.774 213L242.645 217.983C242.645 221.542 290.817 224.746 350 224.746C409.527 224.746 457.355 221.898 457.355 217.983L453.226 213C461.828 214.068 468.71 215.492 472.839 217.271Z" fill="#EDEEEF"/>
<path fill-rule="evenodd" clip-rule="evenodd" d="M350 234C279.118 234 222 228.305 222 220.831C222 219.763 223.72 218.339 226.817 217.271C230.946 215.847 237.828 214.424 246.774 213L242.645 217.983C242.645 221.542 290.817 224.746 350 224.746C409.527 224.746 457.355 221.898 457.355 217.983L453.226 213C461.828 214.068 468.71 215.492 472.839 217.271C476.28 218.339 478 219.763 478 220.831C478 227.949 420.538 234 350 234Z" fill="url(#paint1_linear)"/>
<path d="M453.865 214.952L458 220.063C458 223.714 409.763 227 350.5 227C291.237 227 243 224.079 243 220.063L247.135 214.952L255.748 204C255.748 206.921 298.128 209.111 350.5 209.111C402.872 209.111 445.252 206.921 445.252 204L453.865 214.952Z" fill="#BCC6C7"/>
<path fill-rule="evenodd" clip-rule="evenodd" d="M350.5 227C291.237 227 243 224.079 243 220.063L247.135 214.952L255.748 204C255.748 206.921 298.128 209.111 350.5 209.111C402.872 209.111 445.252 206.921 445.252 204L453.865 214.952L458 220.063C458 223.714 409.763 227 350.5 227Z" fill="url(#paint2_linear)"/>
<path d="M472.862 218C472.862 218 488.972 221.458 490 238.402C490 247.738 427.619 255 350.5 255C273.381 255 211 247.393 211 238.402C212.028 222.841 226.081 218.692 227.795 218.346C224.71 219.383 222.996 220.766 222.996 221.804C222.996 228.72 280.236 234.598 350.5 234.598C421.107 234.598 478.004 229.065 478.004 221.804C478.004 220.766 476.29 219.383 472.862 218.346V218Z" fill="#CAD1DE"/>
<path fill-rule="evenodd" clip-rule="evenodd" d="M350.5 254.654C273.381 254.654 211 247.047 211 238.056C212.028 222.495 226.081 218.346 227.795 218C224.71 219.037 222.996 220.421 222.996 221.458C222.996 228.374 280.236 234.252 350.5 234.252C421.107 234.252 478.004 228.72 478.004 221.458C478.004 220.421 476.29 219.037 472.862 218C472.862 218 488.972 221.458 490 238.402C490 247.738 427.619 255 350.5 255V254.654Z" fill="url(#paint3_linear)"/>
<path d="M482.029 253.603C462.397 260.014 410.734 265 350.116 265C289.843 265 238.524 260.37 218.548 253.959C217.515 253.603 216.482 253.247 215.448 252.89C202.016 247.904 203.394 240.781 209.249 239H209.938C209.938 248.616 272.622 256.096 350.116 256.096C427.611 256.096 490.295 248.26 490.295 239C496.151 240.425 498.906 248.616 484.096 252.89C483.407 253.247 482.718 253.603 482.029 253.603Z" fill="#EEEEEF"/>
<path fill-rule="evenodd" clip-rule="evenodd" d="M350 264.649C289.727 264.649 238.409 260.081 218.432 253.757C217.399 253.405 216.366 253.054 215.333 252.703C207.755 249.892 205 246.378 205 243.568C205 241.459 206.722 239.703 209.133 239H209.822C209.822 248.486 272.506 255.865 350 255.865C427.494 255.865 490.178 248.135 490.178 239C492.933 239.703 495 241.811 495 244.27C495 247.081 492.245 250.595 483.979 253.054C483.29 253.405 482.601 253.757 481.912 253.757C462.28 260.081 410.618 265 350 265V264.649Z" fill="url(#paint4_linear)"/>
<path d="M482 253.345C480.281 271.637 478.906 289.584 477.187 307.186H475.812C475.812 312.363 467.217 317.195 452.434 320.991C441.089 324.097 426.306 326.513 409.116 328.239C392.958 329.965 374.737 331 355.485 331C353.766 331 351.703 331 349.984 331C331.763 331 314.574 330.31 299.103 328.929C282.601 327.549 267.818 325.478 255.786 323.062C235.846 318.92 223.813 313.398 223.813 307.186C222.094 289.584 220.719 271.637 219 253.345C238.94 259.558 290.165 264.044 350.328 264.044C410.835 264.044 462.404 259.558 482 253V253.345Z" fill="#AD2C24"/>
<path d="M475.667 308H477C468 414.26 459 506.375 453 566.06C453 566.75 453 567.095 453 567.785C452 573.995 444.667 579.515 433 584L453 321.8C467.333 318.005 475.667 313.175 475.667 308Z" fill="#FFC55F"/>
<path d="M451.657 322L431.065 585.338C421.456 589.149 408.414 591.921 394 594L408.757 329.969V329.276C425.917 327.544 440.675 325.118 452 322H451.657Z" fill="#DD4E22"/>
<path d="M394.206 593.904C408.998 591.829 421.727 588.716 431.359 585.257C443.4 580.76 450.968 575.226 452 569C447.528 612.928 444.432 638.87 444.432 638.87C443.056 655.473 402.462 670 350.172 670C297.882 670 255.568 655.818 255.568 638.87C255.568 638.87 252.816 612.928 248 569C249.376 576.264 259.696 582.836 276.209 587.678C286.53 590.791 299.258 593.212 313.363 594.942C324.715 596.325 337.099 597.017 350.172 597.017C351.892 597.017 353.612 597.017 354.988 597.017C369.093 596.671 382.165 595.979 393.862 594.25L394.206 593.904Z" fill="#AD2C24"/>
<path d="M408 328V328.694L393.667 593.223C382 594.959 369.333 596 356 596V330.777C374.667 330.777 392.333 329.736 408 328Z" fill="#FFC55F"/>
<path d="M356 331.081V596C354.232 596 352.463 596 351.049 596C337.61 596 324.878 595.306 313.207 593.919L298 329C313.915 330.387 331.951 331.081 350.341 331.081C352.463 331.081 354.232 331.081 356 331.081Z" fill="#DD4E22"/>
<path d="M298.988 328.261L314 594C299.686 592.609 286.769 589.826 276.296 586.696L255 322C267.219 324.435 281.882 326.522 298.988 327.913V328.261Z" fill="#FFC55F"/>
<path d="M256.006 323.96L277 588C260.825 583.143 250.156 576.55 248.779 569.264C248.779 568.57 248.779 568.223 248.779 567.529C242.584 507.504 233.292 414.865 224 308C224 314.245 236.045 319.797 256.006 323.96Z" fill="#DD4E22"/>
<path fill-rule="evenodd" clip-rule="evenodd" d="M331 330.652C319.628 330.305 308.946 329.61 298.953 328.915C282.412 327.524 267.595 325.439 255.534 323.006C246.23 320.921 238.649 318.835 233.135 316.402C231.757 302.152 230.378 287.902 229 274C262.426 280.256 292.75 286.165 329.966 292.073C330.311 304.933 330.655 317.793 331 331V330.652Z" fill="url(#paint5_linear)"/>
<path fill-rule="evenodd" clip-rule="evenodd" d="M336.969 669.654C291.266 667.233 256.56 654.435 256.56 638.87C256.56 638.87 253.811 612.928 249 569C249.687 573.151 253.811 577.301 259.996 580.76C262.402 601.86 264.807 622.959 267.212 643.366C289.548 649.592 312.228 652.36 335.251 652.705C334.907 634.027 334.564 615.349 334.564 596.671C335.595 596.671 336.969 596.671 338 596.671C337.313 621.921 337.313 646.479 337.313 670L336.969 669.654Z" fill="url(#paint6_linear)"/>
<path fill-rule="evenodd" clip-rule="evenodd" d="M356 353V331C356.667 331 357.333 331 358 331C357.333 338.333 356.667 345.667 356 353Z" fill="url(#paint7_linear)"/>
<path fill-rule="evenodd" clip-rule="evenodd" d="M258.667 581C252.667 577.522 248.667 573.349 248 569.176C248 568.48 248 568.132 248 567.437C242 507.62 233 415.113 224 308C224.667 311.13 227.667 313.912 233.333 316.346C241.333 402.246 249.667 494.405 259 580.652L258.667 581Z" fill="url(#paint8_linear)"/>
<path fill-rule="evenodd" clip-rule="evenodd" d="M366.486 284C315.949 281.304 266.099 273.217 219.688 261.087C219.344 258.391 219.344 256.033 219 253.337C238.94 259.402 290.165 263.783 350.328 263.783C410.835 263.783 462.404 259.402 482 253C473.749 255.696 459.654 258.054 441.776 259.739C430.088 260.75 417.024 261.761 402.584 262.435C392.614 262.772 381.957 263.109 370.956 263.446C369.58 269.848 367.861 276.587 366.486 284Z" fill="url(#paint9_linear)"/>
<path fill-rule="evenodd" clip-rule="evenodd" d="M359.708 323.167L360.05 320.318L360.392 317.47V317.114L360.733 314.265V313.909C361.075 311.061 361.758 308.212 362.1 305.364C362.442 303.583 362.783 301.803 363.125 300.023V299.667L363.467 296.818L363.808 294.326V293.97C364.15 292.189 364.492 290.409 364.833 288.629L365.858 284C376.792 284.712 388.067 285.068 399 285.068C397.633 299.667 396.267 314.621 394.9 329.576C393.533 329.576 392.167 329.932 390.8 329.932H390.117C387.725 329.932 385.333 330.288 382.942 330.288H381.917C378.5 330.644 375.083 330.644 371.667 330.644H369.617C365.858 330.644 361.758 331 358 331C358.342 328.152 358.683 325.659 359.367 322.811L359.708 323.167Z" fill="url(#paint10_radial)"/>
<path fill-rule="evenodd" clip-rule="evenodd" d="M481.315 262.709L480.287 273.804L477.546 307.437H476.176C476.176 307.784 476.176 308.477 475.833 308.824H475.491V309.518C475.491 309.864 475.148 309.864 475.148 310.211V310.558C474.463 311.598 473.778 312.291 472.75 313.332H472.407V313.678L472.065 314.025C471.722 314.372 471.38 314.719 470.694 314.719C470.009 315.065 468.981 315.759 468.296 316.106H467.954L467.269 316.452H466.926L466.241 316.799H465.898C463.5 317.839 461.102 318.879 458.019 319.573H457.676L456.306 319.92C455.278 320.266 454.25 320.613 452.88 320.96C451.509 321.307 450.139 321.653 448.426 322C447.398 308.824 446.37 296.342 445 284.899C456.648 284.206 468.296 283.166 479.602 281.779L482 254.387V253.693V253L481.315 262.709Z" fill="url(#paint11_radial)"/>
<defs>
<linearGradient id="paint0_linear" x1="400.458" y1="122.103" x2="339.72" y2="111.023" gradientUnits="userSpaceOnUse">
<stop stop-color="#CC5B22"/>
<stop offset="1" stop-color="#FFC55F"/>
</linearGradient>
<linearGradient id="paint1_linear" x1="349.977" y1="213.206" x2="349.977" y2="233.975" gradientUnits="userSpaceOnUse">
<stop stop-color="#B0C1CB"/>
<stop offset="1" stop-color="#EDEEEF"/>
</linearGradient>
<linearGradient id="paint2_linear" x1="350.474" y1="203.847" x2="350.474" y2="226.869" gradientUnits="userSpaceOnUse">
<stop stop-color="#A09D81"/>
<stop offset="1" stop-color="#BCC6C7"/>
</linearGradient>
<linearGradient id="paint3_linear" x1="349.705" y1="217.232" x2="351.274" y2="255.04" gradientUnits="userSpaceOnUse">
<stop stop-color="#A29C87"/>
<stop offset="1" stop-color="#CAD1DE"/>
</linearGradient>
<linearGradient id="paint4_linear" x1="349.87" y1="264.624" x2="349.87" y2="238.856" gradientUnits="userSpaceOnUse">
<stop stop-color="#B0C1CB"/>
<stop offset="1" stop-color="#EEEEEF"/>
</linearGradient>
<linearGradient id="paint5_linear" x1="274.335" y1="272.777" x2="285.504" y2="331.65" gradientUnits="userSpaceOnUse">
<stop stop-color="white"/>
<stop offset="1" stop-color="#AD2C24"/>
</linearGradient>
<linearGradient id="paint6_linear" x1="293.301" y1="669.73" x2="293.301" y2="568.952" gradientUnits="userSpaceOnUse">
<stop stop-color="#FF3C18"/>
<stop offset="1" stop-color="#AE2D25"/>
</linearGradient>
<linearGradient id="paint7_linear" x1="356.998" y1="352.916" x2="356.998" y2="330.864" gradientUnits="userSpaceOnUse">
<stop stop-color="#FFCA40"/>
<stop offset="1" stop-color="#FFC660"/>
</linearGradient>
<linearGradient id="paint8_linear" x1="241.294" y1="580.91" x2="241.294" y2="308.15" gradientUnits="userSpaceOnUse">
<stop stop-color="#FF5C17"/>
<stop offset="1" stop-color="#DE4F23"/>
</linearGradient>
<linearGradient id="paint9_linear" x1="220.436" y1="245.327" x2="480.163" y2="293.585" gradientUnits="userSpaceOnUse">
<stop stop-color="#621109"/>
<stop offset="1" stop-color="#AD2C24"/>
</linearGradient>
<radialGradient id="paint10_radial" cx="0" cy="0" r="1" gradientUnits="userSpaceOnUse" gradientTransform="translate(393.57 354.835) scale(22.6617 23.6164)">
<stop stop-color="#8A160C"/>
<stop offset="0.239216" stop-color="#951D13"/>
<stop offset="0.478431" stop-color="#9D2219"/>
<stop offset="0.968627" stop-color="#A82820"/>
<stop offset="1" stop-color="#A82820"/>
</radialGradient>
<radialGradient id="paint11_radial" cx="0" cy="0" r="1" gradientUnits="userSpaceOnUse" gradientTransform="translate(466.334 356.524) scale(34.0664 34.4782)">
<stop stop-color="#E6AD85"/>
<stop offset="0.0313725" stop-color="#E6AD85"/>
<stop offset="1" stop-color="#CC6E4D"/>
</radialGradient>
</defs>
</svg>
