<svg width="512" height="512" viewBox="0 0 512 512" fill="none" xmlns="http://www.w3.org/2000/svg">
<g filter="url(#filter0_d)">
<path d="M457.344 228.082C457.344 268.706 434.897 319.654 398.173 360.533C361.49 401.367 311.096 431.563 255.761 431.563C200.426 431.563 150.035 401.367 113.354 360.533C76.6323 319.654 54.1875 268.706 54.1875 228.082C54.1875 187.724 76.3761 150.894 112.827 124.027C149.276 97.1614 199.799 80.4375 255.761 80.4375C311.723 80.4375 362.248 97.1639 398.7 124.031C435.153 150.899 457.344 187.729 457.344 228.082Z" fill="white" stroke="#90C33C" stroke-width="7"/>
</g>
<defs>
<filter id="filter0_d" x="23.6875" y="56.9375" width="464.156" height="412.125" filterUnits="userSpaceOnUse" color-interpolation-filters="sRGB">
<feFlood flood-opacity="0" result="BackgroundImageFix"/>
<feColorMatrix in="SourceAlpha" type="matrix" values="0 0 0 0 0 0 0 0 0 0 0 0 0 0 0 0 0 0 127 0"/>
<feOffset dy="7"/>
<feGaussianBlur stdDeviation="13.5"/>
<feColorMatrix type="matrix" values="0 0 0 0 0.625 0 0 0 0 0.625 0 0 0 0 0.625 0 0 0 0.25 0"/>
<feBlend mode="normal" in2="BackgroundImageFix" result="effect1_dropShadow"/>
<feBlend mode="normal" in="SourceGraphic" in2="effect1_dropShadow" result="shape"/>
</filter>
</defs>
</svg>
